%!PS-Adobe-3.0 EPSF-3.0
%%Creator: MATLAB, The MathWorks, Inc. Version 8.0.0.783 (R2012b). Operating System: Microsoft Windows 7.
%%Title: H:\My Documents\Desktop\BeerBrewing.eps
%%CreationDate: 01/07/2013  09:23:08
%%DocumentNeededFonts: Helvetica
%%DocumentProcessColors: Cyan Magenta Yellow Black
%%LanguageLevel: 2
%%Pages: 1
%%BoundingBox:    47   287   563   504
%%EndComments

%%BeginProlog
% MathWorks dictionary
/MathWorks 160 dict begin
% definition operators
/bdef {bind def} bind def
/ldef {load def} bind def
/xdef {exch def} bdef
/xstore {exch store} bdef
% operator abbreviations
/c  /clip ldef
/cc /concat ldef
/cp /closepath ldef
/gr /grestore ldef
/gs /gsave ldef
/mt /moveto ldef
/np /newpath ldef
/cm /currentmatrix ldef
/sm /setmatrix ldef
/rm /rmoveto ldef
/rl /rlineto ldef
/s {show newpath} bdef
/sc {setcmykcolor} bdef
/sr /setrgbcolor ldef
/sg /setgray ldef
/w /setlinewidth ldef
/j /setlinejoin ldef
/cap /setlinecap ldef
/rc {rectclip} bdef
/rf {rectfill} bdef
% page state control
/pgsv () def
/bpage {/pgsv save def} bdef
/epage {pgsv restore} bdef
/bplot /gsave ldef
/eplot {stroke grestore} bdef
% orientation switch
/portraitMode 0 def /landscapeMode 1 def /rotateMode 2 def
% coordinate system mappings
/dpi2point 0 def
% font control
/FontSize 0 def
/FMS {/FontSize xstore findfont [FontSize 0 0 FontSize neg 0 0]
  makefont setfont} bdef
/ISOLatin1Encoding where {pop /WindowsLatin1Encoding 256 array bdef
ISOLatin1Encoding WindowsLatin1Encoding copy pop
/.notdef/.notdef/quotesinglbase/florin/quotedblbase/ellipsis/dagger
/daggerdbl/circumflex/perthousand/Scaron/guilsinglleft/OE/.notdef/.notdef
/.notdef/.notdef/quoteleft/quoteright/quotedblleft/quotedblright/bullet
/endash/emdash/tilde/trademark/scaron/guilsinglright/oe/.notdef/.notdef
/Ydieresis WindowsLatin1Encoding 128 32 getinterval astore pop}
{/WindowsLatin1Encoding StandardEncoding bdef} ifelse
/reencode {exch dup where {pop load} {pop StandardEncoding} ifelse
  exch dup 3 1 roll findfont dup length dict begin
  { 1 index /FID ne {def}{pop pop} ifelse } forall
  /Encoding exch def currentdict end definefont pop} bdef
/isroman {findfont /CharStrings get /Agrave known} bdef
/FMSR {3 1 roll 1 index dup isroman {reencode} {pop pop} ifelse
  exch FMS} bdef
/csm {1 dpi2point div -1 dpi2point div scale neg translate
 dup landscapeMode eq {pop -90 rotate}
  {rotateMode eq {90 rotate} if} ifelse} bdef
% line types: solid, dotted, dashed, dotdash
/SO { [] 0 setdash } bdef
/DO { [.5 dpi2point mul 4 dpi2point mul] 0 setdash } bdef
/DA { [6 dpi2point mul] 0 setdash } bdef
/DD { [.5 dpi2point mul 4 dpi2point mul 6 dpi2point mul 4
  dpi2point mul] 0 setdash } bdef
% macros for lines and objects
/L {lineto stroke} bdef
/MP {3 1 roll moveto 1 sub {rlineto} repeat} bdef
/AP {{rlineto} repeat} bdef
/PDlw -1 def
/W {/PDlw currentlinewidth def setlinewidth} def
/PP {closepath eofill} bdef
/DP {closepath stroke} bdef
/MR {4 -2 roll moveto dup  0 exch rlineto exch 0 rlineto
  neg 0 exch rlineto closepath} bdef
/FR {MR stroke} bdef
/PR {MR fill} bdef
/L1i {{currentfile picstr readhexstring pop} image} bdef
/tMatrix matrix def
/MakeOval {newpath tMatrix currentmatrix pop translate scale
0 0 1 0 360 arc tMatrix setmatrix} bdef
/FO {MakeOval stroke} bdef
/PO {MakeOval fill} bdef
/PD {currentlinewidth 2 div 0 360 arc fill
   PDlw -1 eq not {PDlw w /PDlw -1 def} if} def
/FA {newpath tMatrix currentmatrix pop translate scale
  0 0 1 5 -2 roll arc tMatrix setmatrix stroke} bdef
/PA {newpath tMatrix currentmatrix pop	translate 0 0 moveto scale
  0 0 1 5 -2 roll arc closepath tMatrix setmatrix fill} bdef
/FAn {newpath tMatrix currentmatrix pop translate scale
  0 0 1 5 -2 roll arcn tMatrix setmatrix stroke} bdef
/PAn {newpath tMatrix currentmatrix pop translate 0 0 moveto scale
  0 0 1 5 -2 roll arcn closepath tMatrix setmatrix fill} bdef
/vradius 0 def /hradius 0 def /lry 0 def
/lrx 0 def /uly 0 def /ulx 0 def /rad 0 def
/MRR {/vradius xdef /hradius xdef /lry xdef /lrx xdef /uly xdef
  /ulx xdef newpath tMatrix currentmatrix pop ulx hradius add uly
  vradius add translate hradius vradius scale 0 0 1 180 270 arc 
  tMatrix setmatrix lrx hradius sub uly vradius add translate
  hradius vradius scale 0 0 1 270 360 arc tMatrix setmatrix
  lrx hradius sub lry vradius sub translate hradius vradius scale
  0 0 1 0 90 arc tMatrix setmatrix ulx hradius add lry vradius sub
  translate hradius vradius scale 0 0 1 90 180 arc tMatrix setmatrix
  closepath} bdef
/FRR {MRR stroke } bdef
/PRR {MRR fill } bdef
/MlrRR {/lry xdef /lrx xdef /uly xdef /ulx xdef /rad lry uly sub 2 div def
  newpath tMatrix currentmatrix pop ulx rad add uly rad add translate
  rad rad scale 0 0 1 90 270 arc tMatrix setmatrix lrx rad sub lry rad
  sub translate rad rad scale 0 0 1 270 90 arc tMatrix setmatrix
  closepath} bdef
/FlrRR {MlrRR stroke } bdef
/PlrRR {MlrRR fill } bdef
/MtbRR {/lry xdef /lrx xdef /uly xdef /ulx xdef /rad lrx ulx sub 2 div def
  newpath tMatrix currentmatrix pop ulx rad add uly rad add translate
  rad rad scale 0 0 1 180 360 arc tMatrix setmatrix lrx rad sub lry rad
  sub translate rad rad scale 0 0 1 0 180 arc tMatrix setmatrix
  closepath} bdef
/FtbRR {MtbRR stroke } bdef
/PtbRR {MtbRR fill } bdef
/stri 6 array def /dtri 6 array def
/smat 6 array def /dmat 6 array def
/tmat1 6 array def /tmat2 6 array def /dif 3 array def
/asub {/ind2 exch def /ind1 exch def dup dup
  ind1 get exch ind2 get sub exch } bdef
/tri_to_matrix {
  2 0 asub 3 1 asub 4 0 asub 5 1 asub
  dup 0 get exch 1 get 7 -1 roll astore } bdef
/compute_transform {
  dmat dtri tri_to_matrix tmat1 invertmatrix 
  smat stri tri_to_matrix tmat2 concatmatrix } bdef
/ds {stri astore pop} bdef
/dt {dtri astore pop} bdef
/db {2 copy /cols xdef /rows xdef mul dup 3 mul string
  currentfile 
  3 index 0 eq {/ASCIIHexDecode filter}
  {/ASCII85Decode filter 3 index 2 eq {/RunLengthDecode filter} if }
  ifelse exch readstring pop
  dup 0 3 index getinterval /rbmap xdef
  dup 2 index dup getinterval /gbmap xdef
  1 index dup 2 mul exch getinterval /bbmap xdef pop pop}bdef
/it {gs np dtri aload pop moveto lineto lineto cp c
  cols rows 8 compute_transform 
  rbmap gbmap bbmap true 3 colorimage gr}bdef
/il {newpath moveto lineto stroke}bdef
currentdict end def
%%EndProlog

%%BeginSetup
MathWorks begin

0 cap

end
%%EndSetup

%%Page: 1 1
%%BeginPageSetup
%%PageBoundingBox:    47   287   563   504
MathWorks begin
bpage
%%EndPageSetup

%%BeginObject: obj1
bplot

/dpi2point 12 def
portraitMode 0564 6048 csm

    0     0  6201  2601 rc
85 dict begin %Colortable dictionary
/c0 { 0.000000 0.000000 0.000000 sr} bdef
/c1 { 1.000000 1.000000 1.000000 sr} bdef
/c2 { 0.900000 0.000000 0.000000 sr} bdef
/c3 { 0.000000 0.820000 0.000000 sr} bdef
/c4 { 0.000000 0.000000 0.800000 sr} bdef
/c5 { 0.910000 0.820000 0.320000 sr} bdef
/c6 { 1.000000 0.260000 0.820000 sr} bdef
/c7 { 0.000000 0.820000 0.820000 sr} bdef
c0
1 j
1 sg
   0    0 6202 2602 rf
6 w
0 2089 2075 0 0 -2089 3537 2284 4 MP
PP
-2075 0 0 2089 2075 0 0 -2089 3537 2284 5 MP stroke
4 w
DO
SO
6 w
0 sg
3537 2284 mt 5612 2284 L
3537 2284 mt 3537  195 L
3537 2284 mt 3537 2263 L
%%IncludeResource: font Helvetica
/Helvetica /WindowsLatin1Encoding 120 FMSR

3504 2429 mt 
(0) s
4228 2284 mt 4228 2263 L
4162 2429 mt 
(10) s
4920 2284 mt 4920 2263 L
4854 2429 mt 
(20) s
5612 2284 mt 5612 2263 L
5546 2429 mt 
(30) s
3537 2284 mt 3557 2284 L
3436 2328 mt 
(0) s
3537 1935 mt 3557 1935 L
3369 1979 mt 
(20) s
3537 1587 mt 3557 1587 L
3369 1631 mt 
(40) s
3537 1239 mt 3557 1239 L
3369 1283 mt 
(60) s
3537  891 mt 3557  891 L
3369  935 mt 
(80) s
3537  543 mt 3557  543 L
3302  587 mt 
(100) s
3537  195 mt 3557  195 L
3302  239 mt 
(120) s
gs 3537 195 2076 2090 rc
12 w
24 0 23 0 24 0 23 0 35 0 35 0 34 0 35 0 
31 0 30 0 30 0 31 0 24 0 25 0 25 0 24 0 
25 0 25 0 24 0 25 0 35 0 35 0 35 0 35 0 
31 0 31 0 31 0 31 0 24 0 25 0 25 0 25 0 
24 0 25 0 25 0 24 0 38 0 37 0 38 0 37 0 
30 0 30 0 30 0 29 0 22 0 22 0 22 0 22 0 
16 0 17 0 17 0 16 0 13 0 13 0 14 0 13 0 
11 0 10 0 11 0 11 0 9 0 9 0 9 0 10 0 
7 0 8 0 8 0 8 0 7 0 7 0 6 0 7 0 
7 0 7 0 7 0 6 0 7 0 7 0 7 0 7 0 
6 0 7 0 7 0 7 0 7 0 6 0 7 0 7 0 
7 0 7 0 6 0 7 0 7 0 7 0 7 0 6 0 
7 0 7 0 7 0 7 0 6 0 7 0 7 0 7 0 
7 0 6 0 7 0 7 0 7 0 7 0 6 0 7 0 
7 0 7 0 6 0 7 0 7 0 7 0 7 0 6 0 
7 0 7 0 7 0 7 0 6 0 6 -1 5 0 6 1 
4 0 3 -1 4 0 3 1 2 0 2 -1 2 1 3 0 
1 0 2 -1 2 1 1 0 2 0 2 -1 1 0 2 1 
2 0 2 -1 1 0 2 1 1 0 2 -1 1 0 1 1 
1 0 1 -1 1 1 1 0 1 0 1 0 1 0 1 0 
1 0 1 0 1 0 1 0 1 0 1 0 1 0 1 0 
1 0 1 1 0 1 1 1 0 8 1 2 0 31 1 10 
0 129 1 39 0 421 1 213 0 884 3537 543 182 MP stroke
DA
0 -348 3537 543 2 MP stroke
24 0 23 -1 24 1 23 0 35 0 35 -1 34 0 35 1 
31 0 30 -1 30 0 31 1 24 0 25 -1 25 1 24 0 
25 0 25 -1 24 1 25 0 35 0 35 -1 35 0 35 1 
31 0 31 -1 31 0 31 1 24 0 25 -1 25 1 25 0 
24 0 25 -1 25 1 24 0 38 0 37 -1 38 0 37 1 
30 0 30 -1 30 0 29 1 22 0 22 0 22 0 22 0 
16 0 17 0 17 0 16 0 13 0 13 0 14 0 13 0 
11 0 10 0 11 0 11 0 9 0 9 0 9 0 10 0 
7 0 8 0 8 0 8 0 7 0 7 0 6 0 7 0 
7 0 7 0 7 0 6 0 7 0 7 0 7 0 7 0 
6 0 7 0 7 0 7 0 7 0 6 0 7 0 7 0 
7 0 7 0 6 0 7 0 7 0 7 0 7 0 6 0 
7 1 7 0 7 0 7 1 6 0 7 1 7 0 7 1 
7 1 6 1 7 2 7 2 7 2 7 2 6 4 7 3 
7 5 7 6 6 7 7 9 7 10 7 13 7 15 6 19 
7 23 7 29 7 34 7 42 6 43 6 51 5 61 6 71 
4 48 3 53 4 58 3 65 2 44 2 47 2 50 3 53 
1 44 2 46 2 48 1 51 2 53 2 56 1 59 2 62 
2 65 2 68 1 72 2 76 1 63 2 66 1 69 1 71 
1 50 1 51 1 53 1 54 1 34 3555 195 158 MP stroke
DD
24 0 23 0 24 0 23 0 35 0 35 0 34 0 35 0 
31 0 30 0 30 0 31 0 24 0 25 0 25 0 24 0 
25 0 25 0 24 0 25 0 35 0 35 0 35 0 35 0 
31 0 31 0 31 0 31 0 24 0 25 0 25 0 25 0 
24 0 25 0 25 0 24 0 38 0 37 0 38 0 37 0 
30 0 30 0 30 0 29 0 22 0 22 0 22 0 22 0 
16 0 17 0 17 0 16 0 13 0 13 0 14 0 13 0 
11 0 10 0 11 0 11 0 9 0 9 0 9 0 10 0 
7 0 8 0 8 0 8 0 7 0 7 0 6 0 7 0 
7 0 7 0 7 0 6 0 7 0 7 0 7 0 7 0 
6 0 7 0 7 0 7 0 7 0 6 0 7 0 7 0 
7 0 7 0 6 0 7 0 7 0 7 0 7 0 6 0 
7 0 7 0 7 0 7 0 6 0 7 0 7 0 7 0 
7 0 6 0 7 0 7 0 7 0 7 0 6 0 7 0 
7 0 7 0 6 0 7 0 7 0 7 0 7 0 6 0 
7 0 7 0 7 0 7 0 6 0 6 0 5 0 6 0 
4 0 3 0 4 0 3 0 2 0 2 0 2 0 3 0 
1 0 2 0 2 0 1 0 2 0 2 0 1 0 2 0 
2 0 2 0 1 0 2 0 1 0 2 0 1 0 1 0 
1 0 1 0 1 0 1 0 1 0 1 0 1 0 1 0 
1 0 1 0 1 0 1 0 1 0 1 0 1 0 1 0 
1 0 1 -1 1 0 -1 0 2 -2 0 -6 1 -2 0 -26 
1 -8 0 -84 1 -43 0 -177 3537 2284 181 MP stroke
gr

12 w
DD
4278 2572 mt 
(time \(days\)) s
3220 1450 mt  -90 rotate
(quantity) s
90 rotate
3520 2327 mt 
( ) s
5596  237 mt 
( ) s
SO
6 w
5133  390 mt 
(sugar) s
gs 4667 255 887 481 rc
12 w
358 0 4738 347 2 MP stroke
gr

12 w
5133  538 mt 
(yeast) s
gs 4667 255 887 481 rc
DA
358 0 4738 495 2 MP stroke
SO
gr

5133  686 mt 
(alcohol) s
gs 4667 255 887 481 rc
DD
358 0 4738 642 2 MP stroke
SO
6 w
gr

6 w
1 sg
0 2089 2075 0 0 -2089 806 2284 4 MP
PP
-2075 0 0 2089 2075 0 0 -2089 806 2284 5 MP stroke
4 w
DO
SO
6 w
0 sg
 806 2284 mt 2881 2284 L
 806 2284 mt  806  195 L
 806 2284 mt  806 2263 L
 773 2429 mt 
(0) s
1497 2284 mt 1497 2263 L
1431 2429 mt 
(10) s
2189 2284 mt 2189 2263 L
2123 2429 mt 
(20) s
2881 2284 mt 2881 2263 L
2815 2429 mt 
(30) s
 806 2284 mt  826 2284 L
 705 2328 mt 
(0) s
 806 1935 mt  826 1935 L
 638 1979 mt 
(20) s
 806 1587 mt  826 1587 L
 638 1631 mt 
(40) s
 806 1239 mt  826 1239 L
 638 1283 mt 
(60) s
 806  891 mt  826  891 L
 638  935 mt 
(80) s
 806  543 mt  826  543 L
 571  587 mt 
(100) s
 806  195 mt  826  195 L
 571  239 mt 
(120) s
gs 806 195 2076 2090 rc
12 w
28 0 28 0 28 0 28 0 52 0 52 0 52 0 52 0 
52 0 51 0 52 0 52 0 45 0 46 0 45 0 45 0 
34 0 34 0 33 0 34 0 26 0 26 0 26 0 26 0 
21 0 21 0 21 0 21 0 18 0 17 0 18 0 17 0 
15 0 15 0 15 0 15 0 13 0 12 0 13 0 13 0 
12 0 12 0 12 0 11 0 12 0 12 0 12 0 12 0 
12 0 12 0 12 0 12 0 11 0 12 0 12 0 12 0 
12 0 12 0 12 0 12 0 12 0 11 1 12 0 12 0 
12 0 12 0 12 0 12 0 12 0 12 0 11 0 12 0 
12 0 12 0 12 0 12 0 12 1 12 0 12 0 12 1 
12 0 12 1 12 0 12 1 13 1 12 2 12 1 13 2 
12 3 13 3 12 4 13 4 12 6 13 7 13 9 12 11 
14 16 15 19 14 26 14 31 15 44 15 55 15 70 15 89 
11 82 12 95 11 109 11 122 6 62 5 65 6 67 5 67 
1 14 1 13 1 14 1 14 1 2 0 11 806 543 119 MP stroke
DA
28 0 28 0 28 0 28 0 52 0 52 -1 52 0 52 1 
52 0 51 -1 52 0 52 1 45 0 46 -1 45 1 45 0 
34 0 34 0 33 0 34 0 26 0 26 0 26 0 26 0 
21 0 21 0 21 0 21 0 18 0 17 0 18 0 17 0 
15 0 15 0 15 0 15 0 13 0 12 0 13 0 13 0 
12 0 12 0 12 0 11 0 12 0 12 0 12 0 12 0 
12 0 12 0 12 0 12 0 11 0 12 0 12 0 12 0 
12 0 12 0 12 0 12 0 12 0 11 0 12 0 12 0 
12 0 12 0 12 1 12 0 12 0 12 1 11 0 12 0 
12 1 12 1 12 1 12 1 12 1 12 2 12 2 12 3 
12 3 12 4 12 5 12 5 13 7 12 9 12 11 13 13 
12 16 13 20 12 24 13 30 12 36 13 43 13 53 12 62 
14 86 15 104 14 123 14 145 15 176 15 195 15 206 15 201 
11 137 12 109 11 70 11 20 6 -11 5 -24 6 -38 5 -51 
1 -12 1 -12 1 -12 1 -13 1 -3 0 -11 806 543 119 MP stroke
DD
28 0 28 0 28 0 28 0 52 0 52 0 52 0 52 0 
52 0 51 0 52 0 52 0 45 0 46 0 45 0 45 0 
34 0 34 0 33 0 34 0 26 0 26 0 26 0 26 0 
21 0 21 0 21 0 21 0 18 0 17 0 18 0 17 0 
15 0 15 0 15 0 15 0 13 0 12 0 13 0 13 0 
12 0 12 0 12 0 11 0 12 0 12 0 12 0 12 0 
12 0 12 0 12 0 12 0 11 0 12 0 12 0 12 0 
12 0 12 0 12 0 12 0 12 0 11 0 12 0 12 0 
12 0 12 0 12 0 12 0 12 0 12 0 11 0 12 0 
12 0 12 0 12 0 12 0 12 0 12 0 12 0 12 0 
12 0 12 0 12 0 12 0 13 -1 12 0 12 0 13 -1 
12 0 13 -1 12 -1 13 -1 12 -1 13 -1 13 -2 12 -2 
14 -3 15 -4 14 -5 14 -7 15 -8 15 -11 15 -14 15 -18 
11 -16 12 -19 11 -22 11 -25 6 -12 5 -13 6 -13 5 -14 
1 -3 1 -2 1 -3 1 -3 1 0 0 -3 806 2284 119 MP stroke
gr

12 w
DD
1547 2572 mt 
(time \(days\)) s
 489 1450 mt  -90 rotate
(quantity) s
90 rotate
SO
6 w

end %%Color Dict

eplot
%%EndObject

epage
end

showpage

%%Trailer
%%EOF
