%!PS-Adobe-3.0 EPSF-3.0
%%Creator: MATLAB, The MathWorks, Inc. Version 8.0.0.783 (R2012b). Operating System: Microsoft Windows 7.
%%Title: H:\My Documents\Desktop\FlourBeetle3.eps
%%CreationDate: 01/08/2013  09:20:01
%%DocumentNeededFonts: Helvetica
%%DocumentProcessColors: Cyan Magenta Yellow Black
%%LanguageLevel: 2
%%Pages: 1
%%BoundingBox:    40   277   571   515
%%EndComments

%%BeginProlog
% MathWorks dictionary
/MathWorks 160 dict begin
% definition operators
/bdef {bind def} bind def
/ldef {load def} bind def
/xdef {exch def} bdef
/xstore {exch store} bdef
% operator abbreviations
/c  /clip ldef
/cc /concat ldef
/cp /closepath ldef
/gr /grestore ldef
/gs /gsave ldef
/mt /moveto ldef
/np /newpath ldef
/cm /currentmatrix ldef
/sm /setmatrix ldef
/rm /rmoveto ldef
/rl /rlineto ldef
/s {show newpath} bdef
/sc {setcmykcolor} bdef
/sr /setrgbcolor ldef
/sg /setgray ldef
/w /setlinewidth ldef
/j /setlinejoin ldef
/cap /setlinecap ldef
/rc {rectclip} bdef
/rf {rectfill} bdef
% page state control
/pgsv () def
/bpage {/pgsv save def} bdef
/epage {pgsv restore} bdef
/bplot /gsave ldef
/eplot {stroke grestore} bdef
% orientation switch
/portraitMode 0 def /landscapeMode 1 def /rotateMode 2 def
% coordinate system mappings
/dpi2point 0 def
% font control
/FontSize 0 def
/FMS {/FontSize xstore findfont [FontSize 0 0 FontSize neg 0 0]
  makefont setfont} bdef
/ISOLatin1Encoding where {pop /WindowsLatin1Encoding 256 array bdef
ISOLatin1Encoding WindowsLatin1Encoding copy pop
/.notdef/.notdef/quotesinglbase/florin/quotedblbase/ellipsis/dagger
/daggerdbl/circumflex/perthousand/Scaron/guilsinglleft/OE/.notdef/.notdef
/.notdef/.notdef/quoteleft/quoteright/quotedblleft/quotedblright/bullet
/endash/emdash/tilde/trademark/scaron/guilsinglright/oe/.notdef/.notdef
/Ydieresis WindowsLatin1Encoding 128 32 getinterval astore pop}
{/WindowsLatin1Encoding StandardEncoding bdef} ifelse
/reencode {exch dup where {pop load} {pop StandardEncoding} ifelse
  exch dup 3 1 roll findfont dup length dict begin
  { 1 index /FID ne {def}{pop pop} ifelse } forall
  /Encoding exch def currentdict end definefont pop} bdef
/isroman {findfont /CharStrings get /Agrave known} bdef
/FMSR {3 1 roll 1 index dup isroman {reencode} {pop pop} ifelse
  exch FMS} bdef
/csm {1 dpi2point div -1 dpi2point div scale neg translate
 dup landscapeMode eq {pop -90 rotate}
  {rotateMode eq {90 rotate} if} ifelse} bdef
% line types: solid, dotted, dashed, dotdash
/SO { [] 0 setdash } bdef
/DO { [.5 dpi2point mul 4 dpi2point mul] 0 setdash } bdef
/DA { [6 dpi2point mul] 0 setdash } bdef
/DD { [.5 dpi2point mul 4 dpi2point mul 6 dpi2point mul 4
  dpi2point mul] 0 setdash } bdef
% macros for lines and objects
/L {lineto stroke} bdef
/MP {3 1 roll moveto 1 sub {rlineto} repeat} bdef
/AP {{rlineto} repeat} bdef
/PDlw -1 def
/W {/PDlw currentlinewidth def setlinewidth} def
/PP {closepath eofill} bdef
/DP {closepath stroke} bdef
/MR {4 -2 roll moveto dup  0 exch rlineto exch 0 rlineto
  neg 0 exch rlineto closepath} bdef
/FR {MR stroke} bdef
/PR {MR fill} bdef
/L1i {{currentfile picstr readhexstring pop} image} bdef
/tMatrix matrix def
/MakeOval {newpath tMatrix currentmatrix pop translate scale
0 0 1 0 360 arc tMatrix setmatrix} bdef
/FO {MakeOval stroke} bdef
/PO {MakeOval fill} bdef
/PD {currentlinewidth 2 div 0 360 arc fill
   PDlw -1 eq not {PDlw w /PDlw -1 def} if} def
/FA {newpath tMatrix currentmatrix pop translate scale
  0 0 1 5 -2 roll arc tMatrix setmatrix stroke} bdef
/PA {newpath tMatrix currentmatrix pop	translate 0 0 moveto scale
  0 0 1 5 -2 roll arc closepath tMatrix setmatrix fill} bdef
/FAn {newpath tMatrix currentmatrix pop translate scale
  0 0 1 5 -2 roll arcn tMatrix setmatrix stroke} bdef
/PAn {newpath tMatrix currentmatrix pop translate 0 0 moveto scale
  0 0 1 5 -2 roll arcn closepath tMatrix setmatrix fill} bdef
/vradius 0 def /hradius 0 def /lry 0 def
/lrx 0 def /uly 0 def /ulx 0 def /rad 0 def
/MRR {/vradius xdef /hradius xdef /lry xdef /lrx xdef /uly xdef
  /ulx xdef newpath tMatrix currentmatrix pop ulx hradius add uly
  vradius add translate hradius vradius scale 0 0 1 180 270 arc 
  tMatrix setmatrix lrx hradius sub uly vradius add translate
  hradius vradius scale 0 0 1 270 360 arc tMatrix setmatrix
  lrx hradius sub lry vradius sub translate hradius vradius scale
  0 0 1 0 90 arc tMatrix setmatrix ulx hradius add lry vradius sub
  translate hradius vradius scale 0 0 1 90 180 arc tMatrix setmatrix
  closepath} bdef
/FRR {MRR stroke } bdef
/PRR {MRR fill } bdef
/MlrRR {/lry xdef /lrx xdef /uly xdef /ulx xdef /rad lry uly sub 2 div def
  newpath tMatrix currentmatrix pop ulx rad add uly rad add translate
  rad rad scale 0 0 1 90 270 arc tMatrix setmatrix lrx rad sub lry rad
  sub translate rad rad scale 0 0 1 270 90 arc tMatrix setmatrix
  closepath} bdef
/FlrRR {MlrRR stroke } bdef
/PlrRR {MlrRR fill } bdef
/MtbRR {/lry xdef /lrx xdef /uly xdef /ulx xdef /rad lrx ulx sub 2 div def
  newpath tMatrix currentmatrix pop ulx rad add uly rad add translate
  rad rad scale 0 0 1 180 360 arc tMatrix setmatrix lrx rad sub lry rad
  sub translate rad rad scale 0 0 1 0 180 arc tMatrix setmatrix
  closepath} bdef
/FtbRR {MtbRR stroke } bdef
/PtbRR {MtbRR fill } bdef
/stri 6 array def /dtri 6 array def
/smat 6 array def /dmat 6 array def
/tmat1 6 array def /tmat2 6 array def /dif 3 array def
/asub {/ind2 exch def /ind1 exch def dup dup
  ind1 get exch ind2 get sub exch } bdef
/tri_to_matrix {
  2 0 asub 3 1 asub 4 0 asub 5 1 asub
  dup 0 get exch 1 get 7 -1 roll astore } bdef
/compute_transform {
  dmat dtri tri_to_matrix tmat1 invertmatrix 
  smat stri tri_to_matrix tmat2 concatmatrix } bdef
/ds {stri astore pop} bdef
/dt {dtri astore pop} bdef
/db {2 copy /cols xdef /rows xdef mul dup 3 mul string
  currentfile 
  3 index 0 eq {/ASCIIHexDecode filter}
  {/ASCII85Decode filter 3 index 2 eq {/RunLengthDecode filter} if }
  ifelse exch readstring pop
  dup 0 3 index getinterval /rbmap xdef
  dup 2 index dup getinterval /gbmap xdef
  1 index dup 2 mul exch getinterval /bbmap xdef pop pop}bdef
/it {gs np dtri aload pop moveto lineto lineto cp c
  cols rows 8 compute_transform 
  rbmap gbmap bbmap true 3 colorimage gr}bdef
/il {newpath moveto lineto stroke}bdef
currentdict end def
%%EndProlog

%%BeginSetup
MathWorks begin

0 cap

end
%%EndSetup

%%Page: 1 1
%%BeginPageSetup
%%PageBoundingBox:    40   277   571   515
MathWorks begin
bpage
%%EndPageSetup

%%BeginObject: obj1
bplot

/dpi2point 12 def
portraitMode 0480 6180 csm

    0     0  6372  2853 rc
85 dict begin %Colortable dictionary
/c0 { 0.000000 0.000000 0.000000 sr} bdef
/c1 { 1.000000 1.000000 1.000000 sr} bdef
/c2 { 0.900000 0.000000 0.000000 sr} bdef
/c3 { 0.000000 0.820000 0.000000 sr} bdef
/c4 { 0.000000 0.000000 0.800000 sr} bdef
/c5 { 0.910000 0.820000 0.320000 sr} bdef
/c6 { 1.000000 0.260000 0.820000 sr} bdef
/c7 { 0.000000 0.820000 0.820000 sr} bdef
c0
1 j
1 sg
   0    0 6373 2854 rf
6 w
0 974 3958 0 0 -974 828 1187 4 MP
PP
-3958 0 0 974 3958 0 0 -974 828 1187 5 MP stroke
4 w
DO
SO
6 w
0 sg
 828 1187 mt 4786 1187 L
 828 1187 mt  828  213 L
 828 1187 mt  828 1147 L
%%IncludeResource: font Helvetica
/Helvetica /WindowsLatin1Encoding 120 FMSR

 795 1332 mt 
(0) s
1487 1187 mt 1487 1147 L
1421 1332 mt 
(10) s
2147 1187 mt 2147 1147 L
2081 1332 mt 
(20) s
2807 1187 mt 2807 1147 L
2741 1332 mt 
(30) s
3466 1187 mt 3466 1147 L
3400 1332 mt 
(40) s
4126 1187 mt 4126 1147 L
4060 1332 mt 
(50) s
4786 1187 mt 4786 1147 L
4720 1332 mt 
(60) s
 828 1187 mt  867 1187 L
 727 1231 mt 
(0) s
 828  862 mt  867  862 L
 593  906 mt 
(100) s
 828  538 mt  867  538 L
 593  582 mt 
(200) s
 828  214 mt  867  214 L
 593  258 mt 
(300) s
gs 828 214 3959 974 rc
66 228 66 -94 66 -179 66 794 66 -786 66 391 66 -271 66 -109 
66 674 66 -714 66 746 66 -643 66 70 66 207 66 -356 66 727 
66 -681 66 223 66 -109 66 -167 66 828 66 -822 66 424 66 -295 
66 -104 66 622 66 -669 66 772 66 -677 65 95 66 161 66 -327 
66 728 66 -688 66 241 66 -129 66 -158 66 817 66 -815 66 436 
66 -310 66 -95 66 617 66 -659 66 716 66 -617 66 85 66 98 
66 -283 66 858 66 -824 66 313 66 -159 66 -154 66 672 66 -677 
66 360 66 -274 66 -96 65 762 828 376 61 MP stroke
DA
66 -89 66 -170 66 753 66 -745 66 370 66 -256 66 -104 66 639 
66 -677 66 708 66 -611 66 67 66 197 66 -338 66 689 66 -646 
66 212 66 -103 66 -159 66 786 66 -780 66 402 66 -280 66 -98 
66 590 66 -635 66 732 66 -642 66 90 65 153 66 -310 66 691 
66 -653 66 228 66 -122 66 -150 66 775 66 -773 66 414 66 -295 
66 -90 66 586 66 -626 66 680 66 -586 66 81 66 93 66 -268 
66 813 66 -782 66 298 66 -151 66 -146 66 637 66 -642 66 342 
66 -260 66 -91 66 723 65 -753 828 1170 61 MP stroke
DD
66 -153 66 671 66 -675 66 181 66 -65 66 -113 66 602 66 -610 
66 428 66 -353 66 -49 66 289 66 -310 66 545 66 -521 66 82 
66 36 66 -136 66 702 66 -711 66 193 66 -71 66 -117 66 562 
66 -568 66 462 66 -396 66 -35 66 259 65 -285 66 558 66 -539 
66 95 66 22 66 -132 66 699 66 -707 66 203 66 -85 66 -113 
66 562 66 -568 66 424 66 -354 66 -27 66 192 66 -227 66 678 
66 -673 66 112 66 35 66 -154 66 582 66 -582 66 191 66 -98 
66 -90 66 679 66 -693 65 309 828 862 61 MP stroke
gr

DD
2693 1475 mt 
(time) s
 511 1100 mt  -90 rotate
(population size) s
90 rotate
 811 1230 mt 
( ) s
4770  256 mt 
( ) s
SO
5377  349 mt 
(larvae) s
gs 4907 214 840 481 rc
361 0 4979 306 2 MP stroke
gr

5377  497 mt 
(pupae) s
gs 4907 214 840 481 rc
DA
361 0 4979 454 2 MP stroke
SO
gr

5377  645 mt 
(adults) s
gs 4907 214 840 481 rc
DD
361 0 4979 601 2 MP stroke
SO
gr

1 sg
0 970 1257 0 0 -970 902 2536 4 MP
PP
-1257 0 0 970 1257 0 0 -970 902 2536 5 MP stroke
4 w
DO
SO
6 w
0 sg
 902 2536 mt 2159 2536 L
 902 2536 mt  902 1566 L
 902 2536 mt  902 2523 L
 869 2681 mt 
(0) s
1321 2536 mt 1321 2523 L
1221 2681 mt 
(100) s
1740 2536 mt 1740 2523 L
1640 2681 mt 
(200) s
2159 2536 mt 2159 2523 L
2059 2681 mt 
(300) s
 902 2536 mt  914 2536 L
 801 2580 mt 
(0) s
 902 2212 mt  914 2212 L
 667 2256 mt 
(100) s
 902 1889 mt  914 1889 L
 667 1933 mt 
(200) s
 902 1566 mt  914 1566 L
 667 1610 mt 
(300) s
gs 902 1566 1258 971 rc
-294 0 0 227 121 0 0 -93 231 0 0 -179 -1025 0 0 792 
1015 0 0 -784 -504 0 0 390 349 0 0 -270 142 0 0 -109 
-872 0 0 672 922 0 0 -712 -963 0 0 744 831 0 0 -642 
-90 0 0 70 -268 0 0 207 460 0 0 -355 -939 0 0 724 
880 0 0 -679 -289 0 0 223 141 0 0 -109 216 0 0 -166 
-1070 0 0 826 1062 0 0 -820 -548 0 0 423 382 0 0 -294 
134 0 0 -104 -804 0 0 620 865 0 0 -667 -997 0 0 769 
874 0 0 -674 -123 0 0 94 -208 0 0 161 423 0 0 -326 
-941 0 0 726 889 0 0 -686 -311 0 0 240 167 0 0 -129 
204 0 0 -157 -1057 0 0 815 1053 0 0 -813 -562 0 0 435 
400 0 0 -310 123 0 0 -94 -798 0 0 615 853 0 0 -658 
-926 0 0 715 797 0 0 -615 -110 0 0 85 -126 0 0 97 
365 0 0 -282 -1108 0 0 855 1065 0 0 -821 -405 0 0 312 
205 0 0 -158 199 0 0 -154 -868 0 0 670 875 0 0 -676 
-466 0 0 360 354 0 0 -273 124 0 0 -96 -984 0 1949 2487 120 MP stroke
1257 -970 902 2536 2 MP stroke
gr

 833 2824 mt 
(number of larvae at time, t) s
 585 2816 mt  -90 rotate
(number of larvae at time, t+1) s
90 rotate
1 sg
0 970 1257 0 0 -970 2691 2536 4 MP
PP
-1257 0 0 970 1257 0 0 -970 2691 2536 5 MP stroke
4 w
DO
SO
6 w
0 sg
2691 2536 mt 3948 2536 L
2691 2536 mt 2691 1566 L
2691 2536 mt 2691 2523 L
2658 2681 mt 
(0) s
3110 2536 mt 3110 2523 L
3010 2681 mt 
(100) s
3529 2536 mt 3529 2523 L
3429 2681 mt 
(200) s
3948 2536 mt 3948 2523 L
3848 2681 mt 
(300) s
2691 2536 mt 2703 2536 L
2590 2580 mt 
(0) s
2691 2212 mt 2703 2212 L
2456 2256 mt 
(100) s
2691 1889 mt 2703 1889 L
2456 1933 mt 
(200) s
2691 1566 mt 2703 1566 L
2456 1610 mt 
(300) s
gs 2691 1566 1258 971 rc
115 0 0 -89 219 0 0 -169 -973 0 0 751 964 0 0 -743 
-479 0 0 369 331 0 0 -256 135 0 0 -103 -827 0 0 637 
875 0 0 -675 -914 0 0 705 788 0 0 -608 -85 0 0 66 
-255 0 0 197 437 0 0 -337 -891 0 0 687 835 0 0 -644 
-274 0 0 211 134 0 0 -103 204 0 0 -158 -1015 0 0 783 
1008 0 0 -777 -520 0 0 401 362 0 0 -279 127 0 0 -98 
-762 0 0 588 821 0 0 -634 -947 0 0 731 830 0 0 -640 
-117 0 0 90 -197 0 0 152 401 0 0 -309 -893 0 0 688 
844 0 0 -651 -296 0 0 228 159 0 0 -122 193 0 0 -149 
-1002 0 0 773 999 0 0 -771 -534 0 0 412 380 0 0 -293 
117 0 0 -90 -757 0 0 584 809 0 0 -624 -879 0 0 678 
757 0 0 -584 -105 0 0 81 -119 0 0 92 346 0 0 -267 
-1051 0 0 811 1010 0 0 -780 -384 0 0 297 195 0 0 -151 
188 0 0 -145 -823 0 0 635 830 0 0 -641 -442 0 0 342 
336 0 0 -259 118 0 0 -91 -934 0 0 720 973 0 2711 1769 120 MP stroke
1257 -970 2691 2536 2 MP stroke
gr

2619 2824 mt 
(number of pupae at time, t) s
2374 2819 mt  -90 rotate
(number of pupae at time, t+1) s
90 rotate
1 sg
0 970 1257 0 0 -970 4480 2536 4 MP
PP
-1257 0 0 970 1257 0 0 -970 4480 2536 5 MP stroke
4 w
DO
SO
6 w
0 sg
4480 2536 mt 5737 2536 L
4480 2536 mt 4480 1566 L
4480 2536 mt 4480 2523 L
4447 2681 mt 
(0) s
4899 2536 mt 4899 2523 L
4799 2681 mt 
(100) s
5318 2536 mt 5318 2523 L
5218 2681 mt 
(200) s
5737 2536 mt 5737 2523 L
5637 2681 mt 
(300) s
4480 2536 mt 4492 2536 L
4379 2580 mt 
(0) s
4480 2212 mt 4492 2212 L
4245 2256 mt 
(100) s
4480 1889 mt 4492 1889 L
4245 1933 mt 
(200) s
4480 1566 mt 4492 1566 L
4245 1610 mt 
(300) s
gs 4480 1566 1258 971 rc
197 0 0 -152 -866 0 0 668 872 0 0 -672 -234 0 0 180 
84 0 0 -64 146 0 0 -113 -777 0 0 600 787 0 0 -608 
-553 0 0 427 457 0 0 -353 63 0 0 -49 -374 0 0 289 
400 0 0 -309 -704 0 0 544 674 0 0 -520 -106 0 0 82 
-47 0 0 36 177 0 0 -137 -908 0 0 701 918 0 0 -709 
-249 0 0 193 92 0 0 -71 151 0 0 -117 -726 0 0 560 
734 0 0 -566 -597 0 0 460 512 0 0 -395 45 0 0 -34 
-335 0 0 258 369 0 0 -284 -721 0 0 556 696 0 0 -537 
-123 0 0 95 -28 0 0 21 170 0 0 -131 -902 0 0 696 
913 0 0 -704 -262 0 0 202 110 0 0 -85 145 0 0 -112 
-726 0 0 560 734 0 0 -566 -547 0 0 422 457 0 0 -352 
34 0 0 -27 -248 0 0 191 293 0 0 -226 -875 0 0 676 
869 0 0 -671 -145 0 0 112 -45 0 0 34 199 0 0 -153 
-752 0 0 581 753 0 0 -581 -248 0 0 191 128 0 0 -99 
115 0 0 -89 -876 0 0 677 894 0 0 -691 -399 0 4899 2520 120 MP stroke
1257 -970 4480 2536 2 MP stroke
gr

4408 2824 mt 
(number of pupae at time, t) s
4163 2819 mt  -90 rotate
(number of pupae at time, t+1) s
90 rotate

end %%Color Dict

eplot
%%EndObject

epage
end

showpage

%%Trailer
%%EOF
