%!PS-Adobe-3.0 EPSF-3.0
%%Creator: MATLAB, The Mathworks, Inc. Version 7.5.0.338 (R2007b). Operating System: Darwin 8.11.1 Darwin Kernel Version 8.11.1: Wed Oct 10 18:23:28 PDT 2007; root:xnu-792.25.20~1/RELEASE_I386 i386.
%%Title: /Users/shawnleroux/Desktop/FlourBeetle.eps
%%CreationDate: 01/06/2013  17:34:01
%%DocumentNeededFonts: Helvetica
%%DocumentProcessColors: Cyan Magenta Yellow Black
%%LanguageLevel: 2
%%Pages: 1
%%BoundingBox:   -75   189   689   601
%%EndComments

%%BeginProlog
% MathWorks dictionary
/MathWorks 160 dict begin
% definition operators
/bdef {bind def} bind def
/ldef {load def} bind def
/xdef {exch def} bdef
/xstore {exch store} bdef
% operator abbreviations
/c  /clip ldef
/cc /concat ldef
/cp /closepath ldef
/gr /grestore ldef
/gs /gsave ldef
/mt /moveto ldef
/np /newpath ldef
/cm /currentmatrix ldef
/sm /setmatrix ldef
/rm /rmoveto ldef
/rl /rlineto ldef
/s {show newpath} bdef
/sc {setcmykcolor} bdef
/sr /setrgbcolor ldef
/sg /setgray ldef
/w /setlinewidth ldef
/j /setlinejoin ldef
/cap /setlinecap ldef
/rc {rectclip} bdef
/rf {rectfill} bdef
% page state control
/pgsv () def
/bpage {/pgsv save def} bdef
/epage {pgsv restore} bdef
/bplot /gsave ldef
/eplot {stroke grestore} bdef
% orientation switch
/portraitMode 0 def /landscapeMode 1 def /rotateMode 2 def
% coordinate system mappings
/dpi2point 0 def
% font control
/FontSize 0 def
/FMS {/FontSize xstore findfont [FontSize 0 0 FontSize neg 0 0]
  makefont setfont} bdef
/reencode {exch dup where {pop load} {pop StandardEncoding} ifelse
  exch dup 3 1 roll findfont dup length dict begin
  { 1 index /FID ne {def}{pop pop} ifelse } forall
  /Encoding exch def currentdict end definefont pop} bdef
/isroman {findfont /CharStrings get /Agrave known} bdef
/FMSR {3 1 roll 1 index dup isroman {reencode} {pop pop} ifelse
  exch FMS} bdef
/csm {1 dpi2point div -1 dpi2point div scale neg translate
 dup landscapeMode eq {pop -90 rotate}
  {rotateMode eq {90 rotate} if} ifelse} bdef
% line types: solid, dotted, dashed, dotdash
/SO { [] 0 setdash } bdef
/DO { [.5 dpi2point mul 4 dpi2point mul] 0 setdash } bdef
/DA { [6 dpi2point mul] 0 setdash } bdef
/DD { [.5 dpi2point mul 4 dpi2point mul 6 dpi2point mul 4
  dpi2point mul] 0 setdash } bdef
% macros for lines and objects
/L {lineto stroke} bdef
/MP {3 1 roll moveto 1 sub {rlineto} repeat} bdef
/AP {{rlineto} repeat} bdef
/PDlw -1 def
/W {/PDlw currentlinewidth def setlinewidth} def
/PP {closepath eofill} bdef
/DP {closepath stroke} bdef
/MR {4 -2 roll moveto dup  0 exch rlineto exch 0 rlineto
  neg 0 exch rlineto closepath} bdef
/FR {MR stroke} bdef
/PR {MR fill} bdef
/L1i {{currentfile picstr readhexstring pop} image} bdef
/tMatrix matrix def
/MakeOval {newpath tMatrix currentmatrix pop translate scale
0 0 1 0 360 arc tMatrix setmatrix} bdef
/FO {MakeOval stroke} bdef
/PO {MakeOval fill} bdef
/PD {currentlinewidth 2 div 0 360 arc fill
   PDlw -1 eq not {PDlw w /PDlw -1 def} if} def
/FA {newpath tMatrix currentmatrix pop translate scale
  0 0 1 5 -2 roll arc tMatrix setmatrix stroke} bdef
/PA {newpath tMatrix currentmatrix pop	translate 0 0 moveto scale
  0 0 1 5 -2 roll arc closepath tMatrix setmatrix fill} bdef
/FAn {newpath tMatrix currentmatrix pop translate scale
  0 0 1 5 -2 roll arcn tMatrix setmatrix stroke} bdef
/PAn {newpath tMatrix currentmatrix pop translate 0 0 moveto scale
  0 0 1 5 -2 roll arcn closepath tMatrix setmatrix fill} bdef
/vradius 0 def /hradius 0 def /lry 0 def
/lrx 0 def /uly 0 def /ulx 0 def /rad 0 def
/MRR {/vradius xdef /hradius xdef /lry xdef /lrx xdef /uly xdef
  /ulx xdef newpath tMatrix currentmatrix pop ulx hradius add uly
  vradius add translate hradius vradius scale 0 0 1 180 270 arc 
  tMatrix setmatrix lrx hradius sub uly vradius add translate
  hradius vradius scale 0 0 1 270 360 arc tMatrix setmatrix
  lrx hradius sub lry vradius sub translate hradius vradius scale
  0 0 1 0 90 arc tMatrix setmatrix ulx hradius add lry vradius sub
  translate hradius vradius scale 0 0 1 90 180 arc tMatrix setmatrix
  closepath} bdef
/FRR {MRR stroke } bdef
/PRR {MRR fill } bdef
/MlrRR {/lry xdef /lrx xdef /uly xdef /ulx xdef /rad lry uly sub 2 div def
  newpath tMatrix currentmatrix pop ulx rad add uly rad add translate
  rad rad scale 0 0 1 90 270 arc tMatrix setmatrix lrx rad sub lry rad
  sub translate rad rad scale 0 0 1 270 90 arc tMatrix setmatrix
  closepath} bdef
/FlrRR {MlrRR stroke } bdef
/PlrRR {MlrRR fill } bdef
/MtbRR {/lry xdef /lrx xdef /uly xdef /ulx xdef /rad lrx ulx sub 2 div def
  newpath tMatrix currentmatrix pop ulx rad add uly rad add translate
  rad rad scale 0 0 1 180 360 arc tMatrix setmatrix lrx rad sub lry rad
  sub translate rad rad scale 0 0 1 0 180 arc tMatrix setmatrix
  closepath} bdef
/FtbRR {MtbRR stroke } bdef
/PtbRR {MtbRR fill } bdef
/stri 6 array def /dtri 6 array def
/smat 6 array def /dmat 6 array def
/tmat1 6 array def /tmat2 6 array def /dif 3 array def
/asub {/ind2 exch def /ind1 exch def dup dup
  ind1 get exch ind2 get sub exch } bdef
/tri_to_matrix {
  2 0 asub 3 1 asub 4 0 asub 5 1 asub
  dup 0 get exch 1 get 7 -1 roll astore } bdef
/compute_transform {
  dmat dtri tri_to_matrix tmat1 invertmatrix 
  smat stri tri_to_matrix tmat2 concatmatrix } bdef
/ds {stri astore pop} bdef
/dt {dtri astore pop} bdef
/db {2 copy /cols xdef /rows xdef mul dup 3 mul string
  currentfile 
  3 index 0 eq {/ASCIIHexDecode filter}
  {/ASCII85Decode filter 3 index 2 eq {/RunLengthDecode filter} if }
  ifelse exch readstring pop
  dup 0 3 index getinterval /rbmap xdef
  dup 2 index dup getinterval /gbmap xdef
  1 index dup 2 mul exch getinterval /bbmap xdef pop pop}bdef
/it {gs np dtri aload pop moveto lineto lineto cp c
  cols rows 8 compute_transform 
  rbmap gbmap bbmap true 3 colorimage gr}bdef
/il {newpath moveto lineto stroke}bdef
currentdict end def
%%EndProlog

%%BeginSetup
MathWorks begin

0 cap

end
%%EndSetup

%%Page: 1 1
%%BeginPageSetup
%%PageBoundingBox:   -75   189   689   601
MathWorks begin
bpage
%%EndPageSetup

%%BeginObject: obj1
bplot

/dpi2point 12 def
portraitMode -0900 7212 csm

    0     0  9176  4937 rc
85 dict begin %Colortable dictionary
/c0 { 0.000000 0.000000 0.000000 sr} bdef
/c1 { 1.000000 1.000000 1.000000 sr} bdef
/c2 { 0.900000 0.000000 0.000000 sr} bdef
/c3 { 0.000000 0.820000 0.000000 sr} bdef
/c4 { 0.000000 0.000000 0.800000 sr} bdef
/c5 { 0.910000 0.820000 0.320000 sr} bdef
/c6 { 1.000000 0.260000 0.820000 sr} bdef
/c7 { 0.000000 0.820000 0.820000 sr} bdef
c0
1 j
1 sg
   0    0 9177 4938 rf
6 w
0 1686 6083 0 0 -1686 1193 2055 4 MP
PP
-6083 0 0 1686 6083 0 0 -1686 1193 2055 5 MP stroke
4 w
DO
SO
6 w
0 sg
1193 2055 mt 7276 2055 L
1193 2055 mt 1193  369 L
1193 2055 mt 1193 1994 L
%%IncludeResource: font Helvetica
/Helvetica /ISOLatin1Encoding 120 FMSR

1160 2200 mt 
(0) s
2206 2055 mt 2206 1994 L
2173 2200 mt 
(5) s
3220 2055 mt 3220 1994 L
3154 2200 mt 
(10) s
4234 2055 mt 4234 1994 L
4168 2200 mt 
(15) s
5248 2055 mt 5248 1994 L
5182 2200 mt 
(20) s
6262 2055 mt 6262 1994 L
6196 2200 mt 
(25) s
7276 2055 mt 7276 1994 L
7210 2200 mt 
(30) s
1193 2055 mt 1253 2055 L
1092 2099 mt 
(0) s
1193 1633 mt 1253 1633 L
 958 1677 mt 
(100) s
1193 1212 mt 1253 1212 L
 958 1256 mt 
(200) s
1193  791 mt 1253  791 L
 958  835 mt 
(300) s
1193  370 mt 1253  370 L
 958  414 mt 
(400) s
gs 1193 370 6084 1686 rc
203 -1521 203 1521 203 -1521 203 1521 202 -1521 203 1521 203 -1521 203 1521 
202 -1521 203 1521 203 -1521 203 1521 202 -1521 203 1521 203 -1521 203 1520 
203 -1520 202 1518 203 -1518 203 1512 203 -1511 202 1497 203 -1496 203 1468 
203 -1464 202 1392 203 -1384 203 1286 203 -1251 202 990 1193 1001 31 MP stroke
gr

  36   36 1193 1001 PO
  36   36 1395 1991 PO
  36   36 1598  740 PO
  36   36 1801 2026 PO
  36   36 2004  642 PO
  36   36 2206 2034 PO
  36   36 2409  570 PO
  36   36 2612 2038 PO
  36   36 2815  542 PO
  36   36 3017 2039 PO
  36   36 3220  528 PO
  36   36 3423 2040 PO
  36   36 3626  522 PO
  36   36 3828 2040 PO
  36   36 4031  520 PO
  36   36 4234 2040 PO
  36   36 4437  519 PO
  36   36 4640 2040 PO
  36   36 4842  519 PO
  36   36 5045 2040 PO
  36   36 5248  519 PO
  36   36 5451 2040 PO
  36   36 5653  519 PO
  36   36 5856 2040 PO
  36   36 6059  519 PO
  36   36 6262 2040 PO
  36   36 6464  519 PO
  36   36 6667 2040 PO
  36   36 6870  519 PO
  36   36 7073 2040 PO
  36   36 7276  519 PO
  36   36 1193 1001 FO
  36   36 1395 1991 FO
  36   36 1598  740 FO
  36   36 1801 2026 FO
  36   36 2004  642 FO
  36   36 2206 2034 FO
  36   36 2409  570 FO
  36   36 2612 2038 FO
  36   36 2815  542 FO
  36   36 3017 2039 FO
  36   36 3220  528 FO
  36   36 3423 2040 FO
  36   36 3626  522 FO
  36   36 3828 2040 FO
  36   36 4031  520 FO
  36   36 4234 2040 FO
  36   36 4437  519 FO
  36   36 4640 2040 FO
  36   36 4842  519 FO
  36   36 5045 2040 FO
  36   36 5248  519 FO
  36   36 5451 2040 FO
  36   36 5653  519 FO
  36   36 5856 2040 FO
  36   36 6059  519 FO
  36   36 6262 2040 FO
  36   36 6464  519 FO
  36   36 6667 2040 FO
  36   36 6870  519 FO
  36   36 7073 2040 FO
  36   36 7276  519 FO
gs 1193 370 6084 1686 rc
203 741 203 -741 203 741 203 -741 202 741 203 -741 203 741 203 -741 
202 741 203 -741 203 741 203 -741 202 741 203 -741 203 741 203 -740 
203 739 202 -739 203 736 203 -736 203 729 202 -728 203 715 203 -713 
203 677 202 -674 203 627 203 -610 203 482 202 -491 1193 2033 31 MP stroke
gr

0 j
-41 71 -41 -71 82 0 1152 2057 4 MP
gs
PP
gr
DP
-41 71 -41 -71 82 0 1354 1566 4 MP
gs
PP
gr
DP
-41 71 -41 -71 82 0 1557 2048 4 MP
gs
PP
gr
DP
-41 71 -41 -71 82 0 1760 1438 4 MP
gs
PP
gr
DP
-41 71 -41 -71 82 0 1963 2065 4 MP
gs
PP
gr
DP
-41 71 -41 -71 82 0 2165 1391 4 MP
gs
PP
gr
DP
-41 71 -41 -71 82 0 2368 2068 4 MP
gs
PP
gr
DP
-41 71 -41 -71 82 0 2571 1355 4 MP
gs
PP
gr
DP
-41 71 -41 -71 82 0 2774 2070 4 MP
gs
PP
gr
DP
-41 71 -41 -71 82 0 2976 1342 4 MP
gs
PP
gr
DP
-41 71 -41 -71 82 0 3179 2071 4 MP
gs
PP
gr
DP
-41 71 -41 -71 82 0 3382 1335 4 MP
gs
PP
gr
DP
-41 71 -41 -71 82 0 3585 2071 4 MP
gs
PP
gr
DP
-41 71 -41 -71 82 0 3787 1332 4 MP
gs
PP
gr
DP
-41 71 -41 -71 82 0 3990 2071 4 MP
gs
PP
gr
DP
-41 71 -41 -71 82 0 4193 1331 4 MP
gs
PP
gr
DP
-41 71 -41 -71 82 0 4396 2072 4 MP
gs
PP
gr
DP
-41 71 -41 -71 82 0 4599 1331 4 MP
gs
PP
gr
DP
-41 71 -41 -71 82 0 4801 2072 4 MP
gs
PP
gr
DP
-41 71 -41 -71 82 0 5004 1331 4 MP
gs
PP
gr
DP
-41 71 -41 -71 82 0 5207 2072 4 MP
gs
PP
gr
DP
-41 71 -41 -71 82 0 5410 1331 4 MP
gs
PP
gr
DP
-41 71 -41 -71 82 0 5612 2072 4 MP
gs
PP
gr
DP
-41 71 -41 -71 82 0 5815 1331 4 MP
gs
PP
gr
DP
-41 71 -41 -71 82 0 6018 2072 4 MP
gs
PP
gr
DP
-41 71 -41 -71 82 0 6221 1331 4 MP
gs
PP
gr
DP
-41 71 -41 -71 82 0 6423 2072 4 MP
gs
PP
gr
DP
-41 71 -41 -71 82 0 6626 1331 4 MP
gs
PP
gr
DP
-41 71 -41 -71 82 0 6829 2072 4 MP
gs
PP
gr
DP
-41 71 -41 -71 82 0 7032 1331 4 MP
gs
PP
gr
DP
-41 71 -41 -71 82 0 7235 2072 4 MP
gs
PP
gr
DP
gs 1193 370 6084 1686 rc
203 -129 203 129 203 -129 203 129 202 -129 203 129 203 -129 203 129 
202 -129 203 129 203 -129 203 129 202 -129 203 129 203 -129 203 128 
203 -128 202 128 203 -129 203 127 203 -129 202 126 203 -133 203 123 
203 -130 202 120 203 -145 203 101 203 -64 202 123 1193 1633 31 MP stroke
gr

0 -58 -58 0 0 58 58 0 1164 1604 5 MP
gs
PP
gr
DP
0 -58 -58 0 0 58 58 0 1366 1727 5 MP
gs
PP
gr
DP
0 -58 -58 0 0 58 58 0 1569 1663 5 MP
gs
PP
gr
DP
0 -58 -58 0 0 58 58 0 1772 1764 5 MP
gs
PP
gr
DP
0 -58 -58 0 0 58 58 0 1975 1619 5 MP
gs
PP
gr
DP
0 -58 -58 0 0 58 58 0 2177 1739 5 MP
gs
PP
gr
DP
0 -58 -58 0 0 58 58 0 2380 1609 5 MP
gs
PP
gr
DP
0 -58 -58 0 0 58 58 0 2583 1732 5 MP
gs
PP
gr
DP
0 -58 -58 0 0 58 58 0 2786 1599 5 MP
gs
PP
gr
DP
0 -58 -58 0 0 58 58 0 2988 1725 5 MP
gs
PP
gr
DP
0 -58 -58 0 0 58 58 0 3191 1596 5 MP
gs
PP
gr
DP
0 -58 -58 0 0 58 58 0 3394 1723 5 MP
gs
PP
gr
DP
0 -58 -58 0 0 58 58 0 3597 1594 5 MP
gs
PP
gr
DP
0 -58 -58 0 0 58 58 0 3799 1722 5 MP
gs
PP
gr
DP
0 -58 -58 0 0 58 58 0 4002 1594 5 MP
gs
PP
gr
DP
0 -58 -58 0 0 58 58 0 4205 1722 5 MP
gs
PP
gr
DP
0 -58 -58 0 0 58 58 0 4408 1593 5 MP
gs
PP
gr
DP
0 -58 -58 0 0 58 58 0 4611 1722 5 MP
gs
PP
gr
DP
0 -58 -58 0 0 58 58 0 4813 1593 5 MP
gs
PP
gr
DP
0 -58 -58 0 0 58 58 0 5016 1722 5 MP
gs
PP
gr
DP
0 -58 -58 0 0 58 58 0 5219 1593 5 MP
gs
PP
gr
DP
0 -58 -58 0 0 58 58 0 5422 1722 5 MP
gs
PP
gr
DP
0 -58 -58 0 0 58 58 0 5624 1593 5 MP
gs
PP
gr
DP
0 -58 -58 0 0 58 58 0 5827 1722 5 MP
gs
PP
gr
DP
0 -58 -58 0 0 58 58 0 6030 1593 5 MP
gs
PP
gr
DP
0 -58 -58 0 0 58 58 0 6233 1722 5 MP
gs
PP
gr
DP
0 -58 -58 0 0 58 58 0 6435 1593 5 MP
gs
PP
gr
DP
0 -58 -58 0 0 58 58 0 6638 1722 5 MP
gs
PP
gr
DP
0 -58 -58 0 0 58 58 0 6841 1593 5 MP
gs
PP
gr
DP
0 -58 -58 0 0 58 58 0 7044 1722 5 MP
gs
PP
gr
DP
0 -58 -58 0 0 58 58 0 7247 1593 5 MP
gs
PP
gr
DP
gs 1193 370 6084 1686 rc
gr

4120 2343 mt 
(time) s
 876 1612 mt  -90 rotate
(population size) s
90 rotate
1176 2098 mt 
( ) s
7260  412 mt 
( ) s
7842  505 mt 
(larvae) s
gs 7397 370 840 481 rc
341 0 7465 462 2 MP stroke
gs 7563 389 147 147 rc
  36   36 7636  462 PO
  36   36 7636  462 FO
gr

gr

7842  653 mt 
(pupae) s
gs 7397 370 840 481 rc
341 0 7465 610 2 MP stroke
gs 7563 537 147 147 rc
-41 71 -41 -71 82 0 7595 634 4 MP
gs
PP
gr
DP
gr

gr

7842  800 mt 
(adults) s
gs 7397 370 840 481 rc
341 0 7465 757 2 MP stroke
gs 7563 684 147 147 rc
0 -58 -58 0 0 58 58 0 7607 728 5 MP
gs
PP
gr
DP
gr

gr

1 sg
0 1684 1958 0 0 -1684 1193 4394 4 MP
PP
-1958 0 0 1684 1958 0 0 -1684 1193 4394 5 MP stroke
4 w
DO
SO
6 w
0 sg
1193 4394 mt 3151 4394 L
1193 4394 mt 1193 2710 L
1193 4394 mt 1193 4374 L
1160 4539 mt 
(0) s
1682 4394 mt 1682 4374 L
1582 4539 mt 
(100) s
2172 4394 mt 2172 4374 L
2072 4539 mt 
(200) s
2661 4394 mt 2661 4374 L
2561 4539 mt 
(300) s
3151 4394 mt 3151 4374 L
3051 4539 mt 
(400) s
1193 4394 mt 1212 4394 L
1092 4438 mt 
(0) s
1193 3973 mt 1212 3973 L
 958 4017 mt 
(100) s
1193 3552 mt 1212 3552 L
 958 3596 mt 
(200) s
1193 3131 mt 1212 3131 L
 958 3175 mt 
(300) s
1193 2710 mt 1212 2710 L
 958 2754 mt 
(400) s
gs 1193 2710 1959 1685 rc
1768 0 0 -1520 -1768 0 0 1520 1768 0 0 -1520 -1768 0 0 1520 
1768 0 0 -1520 -1768 0 0 1520 1768 0 0 -1520 -1768 0 0 1520 
1768 0 0 -1520 -1768 0 0 1520 1768 0 0 -1520 -1768 0 0 1520 
1768 0 0 -1520 -1767 0 0 1520 1767 0 0 -1520 -1766 0 0 1519 
1766 0 0 -1519 -1764 0 0 1517 1763 0 0 -1517 -1757 0 0 1511 
1757 0 0 -1510 -1741 0 0 1497 1739 0 0 -1496 -1706 0 0 1467 
1701 0 0 -1463 -1617 0 0 1391 1608 0 0 -1383 -1494 0 0 1285 
1454 0 0 -1250 -1150 0 2416 4330 60 MP stroke
1958 -1684 1193 4394 2 MP stroke
gr

1475 4682 mt 
(number of larvae at time, t) s
 876 4317 mt  -90 rotate
(number of larvae at time, t+1) s
90 rotate
1 sg
0 1684 1959 0 0 -1684 3769 4394 4 MP
PP
-1959 0 0 1684 1959 0 0 -1684 3769 4394 5 MP stroke
4 w
DO
SO
6 w
0 sg
3769 4394 mt 5728 4394 L
3769 4394 mt 3769 2710 L
3769 4394 mt 3769 4374 L
3736 4539 mt 
(0) s
4258 4394 mt 4258 4374 L
4192 4539 mt 
(50) s
4748 4394 mt 4748 4374 L
4648 4539 mt 
(100) s
5238 4394 mt 5238 4374 L
5138 4539 mt 
(150) s
5728 4394 mt 5728 4374 L
5628 4539 mt 
(200) s
3769 4394 mt 3788 4394 L
3668 4438 mt 
(0) s
3769 3973 mt 3788 3973 L
3601 4017 mt 
(50) s
3769 3552 mt 3788 3552 L
3534 3596 mt 
(100) s
3769 3131 mt 3788 3131 L
3534 3175 mt 
(150) s
3769 2710 mt 3788 2710 L
3534 2754 mt 
(200) s
gs 3769 2710 1960 1685 rc
-1723 0 0 1482 1723 0 0 -1482 -1723 0 0 1482 1723 0 0 -1482 
-1723 0 0 1482 1723 0 0 -1482 -1723 0 0 1482 1723 0 0 -1482 
-1723 0 0 1481 1723 0 0 -1481 -1722 0 0 1481 1722 0 0 -1481 
-1722 0 0 1481 1722 0 0 -1481 -1721 0 0 1480 1721 0 0 -1479 
-1718 0 0 1477 1718 0 0 -1477 -1713 0 0 1472 1712 0 0 -1472 
-1696 0 0 1458 1695 0 0 -1456 -1663 0 0 1429 1658 0 0 -1425 
-1576 0 0 1355 1567 0 0 -1348 -1456 0 0 1252 1417 0 0 -1218 
-1121 0 0 964 1144 0 3817 3368 60 MP stroke
1959 -1684 3769 4394 2 MP stroke
gr

4048 4682 mt 
(number of pupae at time, t) s
3452 4320 mt  -90 rotate
(number of pupae at time, t+1) s
90 rotate
1 sg
0 1684 1958 0 0 -1684 6346 4394 4 MP
PP
-1958 0 0 1684 1958 0 0 -1684 6346 4394 5 MP stroke
4 w
DO
SO
6 w
0 sg
6346 4394 mt 8304 4394 L
6346 4394 mt 6346 2710 L
6346 4394 mt 6346 4374 L
6313 4539 mt 
(0) s
6998 4394 mt 6998 4374 L
6932 4539 mt 
(50) s
7651 4394 mt 7651 4374 L
7551 4539 mt 
(100) s
8304 4394 mt 8304 4374 L
8204 4539 mt 
(150) s
6346 4394 mt 6365 4394 L
6245 4438 mt 
(0) s
6346 3832 mt 6365 3832 L
6178 3876 mt 
(50) s
6346 3271 mt 6365 3271 L
6111 3315 mt 
(100) s
6346 2710 mt 6365 2710 L
6111 2754 mt 
(150) s
gs 6346 2710 1959 1685 rc
398 0 0 -342 -398 0 0 342 398 0 0 -342 -398 0 0 342 
398 0 0 -342 -398 0 0 342 398 0 0 -342 -398 0 0 342 
398 0 0 -342 -398 0 0 342 398 0 0 -342 -397 0 0 342 
398 0 0 -342 -398 0 0 342 398 0 0 -343 -397 0 0 342 
398 0 0 -343 -397 0 0 342 401 0 0 -345 -396 0 0 340 
402 0 0 -345 -392 0 0 337 411 0 0 -354 -382 0 0 329 
404 0 0 -347 -370 0 0 318 450 0 0 -387 -315 0 0 271 
198 0 0 -170 -380 0 7651 3597 60 MP stroke
1958 -1684 6346 4394 2 MP stroke
gr

6625 4682 mt 
(number of pupae at time, t) s
6029 4320 mt  -90 rotate
(number of pupae at time, t+1) s
90 rotate

end %%Color Dict

eplot
%%EndObject

epage
end

showpage

%%Trailer
%%EOF
