%!PS-Adobe-3.0 EPSF-3.0
%%Creator: MATLAB, The MathWorks, Inc. Version 8.0.0.783 (R2012b). Operating System: Microsoft Windows 7.
%%Title: H:\My Documents\Desktop\FlourBeetle2.eps
%%CreationDate: 01/08/2013  09:17:59
%%DocumentNeededFonts: Helvetica
%%DocumentProcessColors: Cyan Magenta Yellow Black
%%LanguageLevel: 2
%%Pages: 1
%%BoundingBox:    43   281   567   509
%%EndComments

%%BeginProlog
% MathWorks dictionary
/MathWorks 160 dict begin
% definition operators
/bdef {bind def} bind def
/ldef {load def} bind def
/xdef {exch def} bdef
/xstore {exch store} bdef
% operator abbreviations
/c  /clip ldef
/cc /concat ldef
/cp /closepath ldef
/gr /grestore ldef
/gs /gsave ldef
/mt /moveto ldef
/np /newpath ldef
/cm /currentmatrix ldef
/sm /setmatrix ldef
/rm /rmoveto ldef
/rl /rlineto ldef
/s {show newpath} bdef
/sc {setcmykcolor} bdef
/sr /setrgbcolor ldef
/sg /setgray ldef
/w /setlinewidth ldef
/j /setlinejoin ldef
/cap /setlinecap ldef
/rc {rectclip} bdef
/rf {rectfill} bdef
% page state control
/pgsv () def
/bpage {/pgsv save def} bdef
/epage {pgsv restore} bdef
/bplot /gsave ldef
/eplot {stroke grestore} bdef
% orientation switch
/portraitMode 0 def /landscapeMode 1 def /rotateMode 2 def
% coordinate system mappings
/dpi2point 0 def
% font control
/FontSize 0 def
/FMS {/FontSize xstore findfont [FontSize 0 0 FontSize neg 0 0]
  makefont setfont} bdef
/ISOLatin1Encoding where {pop /WindowsLatin1Encoding 256 array bdef
ISOLatin1Encoding WindowsLatin1Encoding copy pop
/.notdef/.notdef/quotesinglbase/florin/quotedblbase/ellipsis/dagger
/daggerdbl/circumflex/perthousand/Scaron/guilsinglleft/OE/.notdef/.notdef
/.notdef/.notdef/quoteleft/quoteright/quotedblleft/quotedblright/bullet
/endash/emdash/tilde/trademark/scaron/guilsinglright/oe/.notdef/.notdef
/Ydieresis WindowsLatin1Encoding 128 32 getinterval astore pop}
{/WindowsLatin1Encoding StandardEncoding bdef} ifelse
/reencode {exch dup where {pop load} {pop StandardEncoding} ifelse
  exch dup 3 1 roll findfont dup length dict begin
  { 1 index /FID ne {def}{pop pop} ifelse } forall
  /Encoding exch def currentdict end definefont pop} bdef
/isroman {findfont /CharStrings get /Agrave known} bdef
/FMSR {3 1 roll 1 index dup isroman {reencode} {pop pop} ifelse
  exch FMS} bdef
/csm {1 dpi2point div -1 dpi2point div scale neg translate
 dup landscapeMode eq {pop -90 rotate}
  {rotateMode eq {90 rotate} if} ifelse} bdef
% line types: solid, dotted, dashed, dotdash
/SO { [] 0 setdash } bdef
/DO { [.5 dpi2point mul 4 dpi2point mul] 0 setdash } bdef
/DA { [6 dpi2point mul] 0 setdash } bdef
/DD { [.5 dpi2point mul 4 dpi2point mul 6 dpi2point mul 4
  dpi2point mul] 0 setdash } bdef
% macros for lines and objects
/L {lineto stroke} bdef
/MP {3 1 roll moveto 1 sub {rlineto} repeat} bdef
/AP {{rlineto} repeat} bdef
/PDlw -1 def
/W {/PDlw currentlinewidth def setlinewidth} def
/PP {closepath eofill} bdef
/DP {closepath stroke} bdef
/MR {4 -2 roll moveto dup  0 exch rlineto exch 0 rlineto
  neg 0 exch rlineto closepath} bdef
/FR {MR stroke} bdef
/PR {MR fill} bdef
/L1i {{currentfile picstr readhexstring pop} image} bdef
/tMatrix matrix def
/MakeOval {newpath tMatrix currentmatrix pop translate scale
0 0 1 0 360 arc tMatrix setmatrix} bdef
/FO {MakeOval stroke} bdef
/PO {MakeOval fill} bdef
/PD {currentlinewidth 2 div 0 360 arc fill
   PDlw -1 eq not {PDlw w /PDlw -1 def} if} def
/FA {newpath tMatrix currentmatrix pop translate scale
  0 0 1 5 -2 roll arc tMatrix setmatrix stroke} bdef
/PA {newpath tMatrix currentmatrix pop	translate 0 0 moveto scale
  0 0 1 5 -2 roll arc closepath tMatrix setmatrix fill} bdef
/FAn {newpath tMatrix currentmatrix pop translate scale
  0 0 1 5 -2 roll arcn tMatrix setmatrix stroke} bdef
/PAn {newpath tMatrix currentmatrix pop translate 0 0 moveto scale
  0 0 1 5 -2 roll arcn closepath tMatrix setmatrix fill} bdef
/vradius 0 def /hradius 0 def /lry 0 def
/lrx 0 def /uly 0 def /ulx 0 def /rad 0 def
/MRR {/vradius xdef /hradius xdef /lry xdef /lrx xdef /uly xdef
  /ulx xdef newpath tMatrix currentmatrix pop ulx hradius add uly
  vradius add translate hradius vradius scale 0 0 1 180 270 arc 
  tMatrix setmatrix lrx hradius sub uly vradius add translate
  hradius vradius scale 0 0 1 270 360 arc tMatrix setmatrix
  lrx hradius sub lry vradius sub translate hradius vradius scale
  0 0 1 0 90 arc tMatrix setmatrix ulx hradius add lry vradius sub
  translate hradius vradius scale 0 0 1 90 180 arc tMatrix setmatrix
  closepath} bdef
/FRR {MRR stroke } bdef
/PRR {MRR fill } bdef
/MlrRR {/lry xdef /lrx xdef /uly xdef /ulx xdef /rad lry uly sub 2 div def
  newpath tMatrix currentmatrix pop ulx rad add uly rad add translate
  rad rad scale 0 0 1 90 270 arc tMatrix setmatrix lrx rad sub lry rad
  sub translate rad rad scale 0 0 1 270 90 arc tMatrix setmatrix
  closepath} bdef
/FlrRR {MlrRR stroke } bdef
/PlrRR {MlrRR fill } bdef
/MtbRR {/lry xdef /lrx xdef /uly xdef /ulx xdef /rad lrx ulx sub 2 div def
  newpath tMatrix currentmatrix pop ulx rad add uly rad add translate
  rad rad scale 0 0 1 180 360 arc tMatrix setmatrix lrx rad sub lry rad
  sub translate rad rad scale 0 0 1 0 180 arc tMatrix setmatrix
  closepath} bdef
/FtbRR {MtbRR stroke } bdef
/PtbRR {MtbRR fill } bdef
/stri 6 array def /dtri 6 array def
/smat 6 array def /dmat 6 array def
/tmat1 6 array def /tmat2 6 array def /dif 3 array def
/asub {/ind2 exch def /ind1 exch def dup dup
  ind1 get exch ind2 get sub exch } bdef
/tri_to_matrix {
  2 0 asub 3 1 asub 4 0 asub 5 1 asub
  dup 0 get exch 1 get 7 -1 roll astore } bdef
/compute_transform {
  dmat dtri tri_to_matrix tmat1 invertmatrix 
  smat stri tri_to_matrix tmat2 concatmatrix } bdef
/ds {stri astore pop} bdef
/dt {dtri astore pop} bdef
/db {2 copy /cols xdef /rows xdef mul dup 3 mul string
  currentfile 
  3 index 0 eq {/ASCIIHexDecode filter}
  {/ASCII85Decode filter 3 index 2 eq {/RunLengthDecode filter} if }
  ifelse exch readstring pop
  dup 0 3 index getinterval /rbmap xdef
  dup 2 index dup getinterval /gbmap xdef
  1 index dup 2 mul exch getinterval /bbmap xdef pop pop}bdef
/it {gs np dtri aload pop moveto lineto lineto cp c
  cols rows 8 compute_transform 
  rbmap gbmap bbmap true 3 colorimage gr}bdef
/il {newpath moveto lineto stroke}bdef
currentdict end def
%%EndProlog

%%BeginSetup
MathWorks begin

0 cap

end
%%EndSetup

%%Page: 1 1
%%BeginPageSetup
%%PageBoundingBox:    43   281   567   509
MathWorks begin
bpage
%%EndPageSetup

%%BeginObject: obj1
bplot

/dpi2point 12 def
portraitMode 0516 6108 csm

    0     0  6290  2736 rc
85 dict begin %Colortable dictionary
/c0 { 0.000000 0.000000 0.000000 sr} bdef
/c1 { 1.000000 1.000000 1.000000 sr} bdef
/c2 { 0.900000 0.000000 0.000000 sr} bdef
/c3 { 0.000000 0.820000 0.000000 sr} bdef
/c4 { 0.000000 0.000000 0.800000 sr} bdef
/c5 { 0.910000 0.820000 0.320000 sr} bdef
/c6 { 1.000000 0.260000 0.820000 sr} bdef
/c7 { 0.000000 0.820000 0.820000 sr} bdef
c0
1 j
1 sg
   0    0 6291 2737 rf
6 w
0 935 3894 0 0 -935 818 1139 4 MP
PP
-3894 0 0 935 3894 0 0 -935 818 1139 5 MP stroke
4 w
DO
SO
6 w
0 sg
 818 1139 mt 4712 1139 L
 818 1139 mt  818  204 L
 818 1139 mt  818 1100 L
%%IncludeResource: font Helvetica
/Helvetica /WindowsLatin1Encoding 120 FMSR

 785 1284 mt 
(0) s
1467 1139 mt 1467 1100 L
1401 1284 mt 
(10) s
2116 1139 mt 2116 1100 L
2050 1284 mt 
(20) s
2765 1139 mt 2765 1100 L
2699 1284 mt 
(30) s
3414 1139 mt 3414 1100 L
3348 1284 mt 
(40) s
4063 1139 mt 4063 1100 L
3997 1284 mt 
(50) s
4712 1139 mt 4712 1100 L
4646 1284 mt 
(60) s
 818 1139 mt  856 1139 L
 717 1183 mt 
(0) s
 818  827 mt  856  827 L
 583  871 mt 
(100) s
 818  516 mt  856  516 L
 583  560 mt 
(200) s
 818  205 mt  856  205 L
 583  249 mt 
(300) s
gs 818 205 3895 935 rc
60 -903 65 839 65 -823 64 732 818 360 5 MP stroke
57 -917 60 917 1082 205 3 MP stroke
54 -920 57 920 1215 205 3 MP stroke
54 -923 55 923 1347 205 3 MP stroke
54 -923 54 923 1477 205 3 MP stroke
54 -924 53 924 1608 205 3 MP stroke
53 -924 54 924 1737 205 3 MP stroke
53 -924 53 924 1868 205 3 MP stroke
53 -924 54 924 1997 205 3 MP stroke
54 -924 53 924 2127 205 3 MP stroke
54 -924 53 924 2257 205 3 MP stroke
53 -924 53 924 2387 205 3 MP stroke
53 -924 54 924 2516 205 3 MP stroke
53 -924 54 924 2646 205 3 MP stroke
54 -924 53 924 2776 205 3 MP stroke
54 -924 53 924 2906 205 3 MP stroke
53 -924 53 924 3036 205 3 MP stroke
53 -924 54 924 3165 205 3 MP stroke
53 -924 54 924 3295 205 3 MP stroke
54 -924 53 924 3425 205 3 MP stroke
54 -924 53 924 3555 205 3 MP stroke
53 -924 53 924 3685 205 3 MP stroke
53 -924 54 924 3814 205 3 MP stroke
53 -924 54 924 3944 205 3 MP stroke
54 -924 53 924 4074 205 3 MP stroke
54 -924 53 924 4204 205 3 MP stroke
53 -924 53 924 4334 205 3 MP stroke
53 -924 54 924 4463 205 3 MP stroke
53 -924 54 924 4593 205 3 MP stroke
DA
63 -905 65 796 65 -780 65 694 64 -723 818 1123 6 MP stroke
60 -918 63 918 1144 205 3 MP stroke
57 -921 60 921 1277 205 3 MP stroke
57 -923 58 923 1409 205 3 MP stroke
57 -924 57 924 1539 205 3 MP stroke
57 -924 56 924 1670 205 3 MP stroke
56 -924 57 924 1799 205 3 MP stroke
56 -924 56 924 1930 205 3 MP stroke
56 -924 57 924 2059 205 3 MP stroke
57 -924 56 924 2189 205 3 MP stroke
56 -924 56 924 2319 205 3 MP stroke
56 -924 56 924 2449 205 3 MP stroke
56 -924 57 924 2578 205 3 MP stroke
56 -924 57 924 2708 205 3 MP stroke
57 -924 56 924 2838 205 3 MP stroke
56 -924 56 924 2968 205 3 MP stroke
56 -924 56 924 3098 205 3 MP stroke
56 -924 57 924 3227 205 3 MP stroke
56 -924 57 924 3357 205 3 MP stroke
57 -924 56 924 3487 205 3 MP stroke
56 -924 56 924 3617 205 3 MP stroke
56 -924 56 924 3747 205 3 MP stroke
56 -924 57 924 3876 205 3 MP stroke
56 -925 57 924 4006 205 3 MP stroke
57 -924 56 924 4136 205 3 MP stroke
56 -924 56 924 4266 205 3 MP stroke
56 -924 56 925 4396 204 3 MP stroke
56 -924 57 924 4525 205 3 MP stroke
57 924 4655 205 2 MP stroke
DD
65 -217 65 217 65 -217 65 217 65 -217 65 217 65 -217 65 217 
65 -217 64 217 65 -217 65 216 65 -216 65 217 65 -217 65 216 
65 -216 65 217 65 -217 64 216 65 -216 65 217 65 -217 65 216 
65 -216 65 218 65 -219 65 217 65 -215 64 217 65 -219 65 216 
65 -214 65 218 65 -220 65 215 65 -212 65 218 65 -222 64 215 
65 -211 65 220 65 -225 65 214 65 -208 65 221 65 -229 65 212 
65 -203 64 221 65 -235 65 206 65 -196 65 215 65 -242 65 185 
65 -176 65 189 65 -231 64 153 818 827 61 MP stroke
gr

DD
2651 1427 mt 
(time) s
 501 1072 mt  -90 rotate
(population size) s
90 rotate
 801 1182 mt 
( ) s
4696  247 mt 
( ) s
SO
5303  340 mt 
(larvae) s
gs 4833 205 840 481 rc
361 0 4905 297 2 MP stroke
gr

5303  488 mt 
(pupae) s
gs 4833 205 840 481 rc
DA
361 0 4905 445 2 MP stroke
SO
gr

5303  636 mt 
(adults) s
gs 4833 205 840 481 rc
DD
361 0 4905 592 2 MP stroke
SO
gr

1 sg
0 917 1235 0 0 -917 895 2419 4 MP
PP
-1235 0 0 917 1235 0 0 -917 895 2419 5 MP stroke
4 w
DO
SO
6 w
0 sg
 895 2419 mt 2130 2419 L
 895 2419 mt  895 1502 L
 895 2419 mt  895 2406 L
 862 2564 mt 
(0) s
1512 2419 mt 1512 2406 L
1412 2564 mt 
(200) s
2130 2419 mt 2130 2406 L
2030 2564 mt 
(400) s
 895 2419 mt  907 2419 L
 794 2463 mt 
(0) s
 895 1960 mt  907 1960 L
 660 2004 mt 
(200) s
 895 1502 mt  907 1502 L
 660 1546 mt 
(400) s
gs 895 1502 1236 918 rc
1114 0 0 -827 -1114 0 0 827 1114 0 0 -827 -1114 0 0 827 
1114 0 0 -827 -1114 0 0 826 1114 0 0 -826 -1114 0 0 827 
1114 0 0 -827 -1114 0 0 826 1114 0 0 -826 -1114 0 0 827 
1114 0 0 -827 -1114 0 0 826 1114 0 0 -826 -1114 0 0 827 
1114 0 0 -827 -1114 0 0 826 1114 0 0 -826 -1114 0 0 827 
1114 0 0 -827 -1113 0 0 826 1113 0 0 -826 -1114 0 0 827 
1114 0 0 -827 -1113 0 0 826 1113 0 0 -826 -1115 0 0 827 
1115 0 0 -827 -1113 0 0 826 1113 0 0 -826 -1115 0 0 827 
1115 0 0 -827 -1112 0 0 826 1112 0 0 -826 -1115 0 0 828 
1115 0 0 -828 -1112 0 0 825 1112 0 0 -825 -1116 0 0 828 
1116 0 0 -828 -1110 0 0 824 1110 0 0 -824 -1117 0 0 829 
1117 0 0 -829 -1108 0 0 822 1108 0 0 -822 -1116 0 0 828 
1115 0 0 -828 -1096 0 0 814 1096 0 0 -814 -1097 0 0 815 
1095 0 0 -813 -1040 0 0 772 1036 0 0 -769 -990 0 0 735 
976 0 0 -725 -832 0 0 618 816 0 0 -606 -725 0 1666 2384 120 MP stroke
926 -688 895 2419 2 MP stroke
gr

 815 2707 mt 
(number of larvae at time, t) s
 578 2725 mt  -90 rotate
(number of larvae at time, t+1) s
90 rotate
1 sg
0 917 1234 0 0 -917 2662 2419 4 MP
PP
-1234 0 0 917 1234 0 0 -917 2662 2419 5 MP stroke
4 w
DO
SO
6 w
0 sg
2662 2419 mt 3896 2419 L
2662 2419 mt 2662 1502 L
2662 2419 mt 2662 2406 L
2629 2564 mt 
(0) s
3279 2419 mt 3279 2406 L
3179 2564 mt 
(200) s
3896 2419 mt 3896 2406 L
3796 2564 mt 
(400) s
2662 2419 mt 2674 2419 L
2561 2463 mt 
(0) s
2662 1960 mt 2674 1960 L
2427 2004 mt 
(200) s
2662 1502 mt 2674 1502 L
2427 1546 mt 
(400) s
gs 2662 1502 1235 918 rc
-1055 0 0 785 1055 0 0 -785 -1055 0 0 785 1055 0 0 -785 
-1055 0 0 785 1055 0 0 -785 -1055 0 0 785 1055 0 0 -785 
-1055 0 0 785 1055 0 0 -785 -1055 0 0 785 1055 0 0 -785 
-1055 0 0 785 1055 0 0 -785 -1055 0 0 785 1055 0 0 -785 
-1055 0 0 785 1055 0 0 -785 -1056 0 0 785 1056 0 0 -785 
-1055 0 0 784 1055 0 0 -784 -1056 0 0 785 1056 0 0 -785 
-1055 0 0 784 1055 0 0 -784 -1056 0 0 785 1056 0 0 -785 
-1054 0 0 784 1054 0 0 -784 -1056 0 0 786 1056 0 0 -786 
-1054 0 0 784 1054 0 0 -784 -1057 0 0 786 1057 0 0 -786 
-1053 0 0 783 1053 0 0 -783 -1058 0 0 786 1058 0 0 -786 
-1052 0 0 782 1052 0 0 -782 -1058 0 0 787 1058 0 0 -787 
-1049 0 0 780 1049 0 0 -780 -1057 0 0 786 1057 0 0 -785 
-1039 0 0 772 1039 0 0 -772 -1040 0 0 773 1037 0 0 -771 
-985 0 0 732 982 0 0 -730 -939 0 0 698 926 0 0 -688 
-789 0 0 586 773 0 0 -575 -687 0 0 511 716 0 2677 1875 120 MP stroke
925 -688 2662 2419 2 MP stroke
gr

2579 2707 mt 
(number of pupae at time, t) s
2345 2728 mt  -90 rotate
(number of pupae at time, t+1) s
90 rotate
1 sg
0 917 1234 0 0 -917 4428 2419 4 MP
PP
-1234 0 0 917 1234 0 0 -917 4428 2419 5 MP stroke
4 w
DO
SO
6 w
0 sg
4428 2419 mt 5662 2419 L
4428 2419 mt 4428 1502 L
4428 2419 mt 4428 2406 L
4395 2564 mt 
(0) s
4839 2419 mt 4839 2406 L
4739 2564 mt 
(100) s
5250 2419 mt 5250 2406 L
5150 2564 mt 
(200) s
5662 2419 mt 5662 2406 L
5562 2564 mt 
(300) s
4428 2419 mt 4440 2419 L
4327 2463 mt 
(0) s
4428 2113 mt 4440 2113 L
4193 2157 mt 
(100) s
4428 1807 mt 4440 1807 L
4193 1851 mt 
(200) s
4428 1502 mt 4440 1502 L
4193 1546 mt 
(300) s
gs 4428 1502 1235 918 rc
286 0 0 -213 -287 0 0 213 287 0 0 -213 -286 0 0 213 
286 0 0 -213 -287 0 0 213 287 0 0 -213 -286 0 0 213 
286 0 0 -213 -287 0 0 213 287 0 0 -213 -286 0 0 213 
286 0 0 -213 -287 0 0 213 287 0 0 -213 -286 0 0 212 
286 0 0 -212 -287 0 0 213 287 0 0 -213 -286 0 0 212 
285 0 0 -212 -286 0 0 213 287 0 0 -213 -285 0 0 212 
284 0 0 -212 -287 0 0 214 289 0 0 -215 -286 0 0 213 
284 0 0 -211 -287 0 0 213 289 0 0 -215 -285 0 0 212 
282 0 0 -210 -287 0 0 214 291 0 0 -216 -285 0 0 211 
281 0 0 -208 -289 0 0 214 293 0 0 -218 -283 0 0 211 
278 0 0 -207 -290 0 0 216 297 0 0 -221 -282 0 0 210 
273 0 0 -204 -291 0 0 217 302 0 0 -225 -279 0 0 208 
267 0 0 -199 -291 0 0 217 310 0 0 -231 -272 0 0 203 
259 0 0 -193 -284 0 0 211 319 0 0 -237 -244 0 0 181 
233 0 0 -173 -251 0 0 186 306 0 0 -227 -202 0 4839 2263 120 MP stroke
1234 -917 4428 2419 2 MP stroke
gr

4345 2707 mt 
(number of pupae at time, t) s
4111 2728 mt  -90 rotate
(number of pupae at time, t+1) s
90 rotate

end %%Color Dict

eplot
%%EndObject

epage
end

showpage

%%Trailer
%%EOF
