%!PS-Adobe-3.0 EPSF-3.0
%%Creator: MATLAB, The MathWorks, Inc. Version 8.0.0.783 (R2012b). Operating System: Microsoft Windows 7.
%%Title: H:\My Documents\Desktop\FlourBeetle1.eps
%%CreationDate: 01/08/2013  09:12:01
%%DocumentNeededFonts: Helvetica
%%DocumentProcessColors: Cyan Magenta Yellow Black
%%LanguageLevel: 2
%%Pages: 1
%%BoundingBox:    39   236   571   554
%%EndComments

%%BeginProlog
% MathWorks dictionary
/MathWorks 160 dict begin
% definition operators
/bdef {bind def} bind def
/ldef {load def} bind def
/xdef {exch def} bdef
/xstore {exch store} bdef
% operator abbreviations
/c  /clip ldef
/cc /concat ldef
/cp /closepath ldef
/gr /grestore ldef
/gs /gsave ldef
/mt /moveto ldef
/np /newpath ldef
/cm /currentmatrix ldef
/sm /setmatrix ldef
/rm /rmoveto ldef
/rl /rlineto ldef
/s {show newpath} bdef
/sc {setcmykcolor} bdef
/sr /setrgbcolor ldef
/sg /setgray ldef
/w /setlinewidth ldef
/j /setlinejoin ldef
/cap /setlinecap ldef
/rc {rectclip} bdef
/rf {rectfill} bdef
% page state control
/pgsv () def
/bpage {/pgsv save def} bdef
/epage {pgsv restore} bdef
/bplot /gsave ldef
/eplot {stroke grestore} bdef
% orientation switch
/portraitMode 0 def /landscapeMode 1 def /rotateMode 2 def
% coordinate system mappings
/dpi2point 0 def
% font control
/FontSize 0 def
/FMS {/FontSize xstore findfont [FontSize 0 0 FontSize neg 0 0]
  makefont setfont} bdef
/ISOLatin1Encoding where {pop /WindowsLatin1Encoding 256 array bdef
ISOLatin1Encoding WindowsLatin1Encoding copy pop
/.notdef/.notdef/quotesinglbase/florin/quotedblbase/ellipsis/dagger
/daggerdbl/circumflex/perthousand/Scaron/guilsinglleft/OE/.notdef/.notdef
/.notdef/.notdef/quoteleft/quoteright/quotedblleft/quotedblright/bullet
/endash/emdash/tilde/trademark/scaron/guilsinglright/oe/.notdef/.notdef
/Ydieresis WindowsLatin1Encoding 128 32 getinterval astore pop}
{/WindowsLatin1Encoding StandardEncoding bdef} ifelse
/reencode {exch dup where {pop load} {pop StandardEncoding} ifelse
  exch dup 3 1 roll findfont dup length dict begin
  { 1 index /FID ne {def}{pop pop} ifelse } forall
  /Encoding exch def currentdict end definefont pop} bdef
/isroman {findfont /CharStrings get /Agrave known} bdef
/FMSR {3 1 roll 1 index dup isroman {reencode} {pop pop} ifelse
  exch FMS} bdef
/csm {1 dpi2point div -1 dpi2point div scale neg translate
 dup landscapeMode eq {pop -90 rotate}
  {rotateMode eq {90 rotate} if} ifelse} bdef
% line types: solid, dotted, dashed, dotdash
/SO { [] 0 setdash } bdef
/DO { [.5 dpi2point mul 4 dpi2point mul] 0 setdash } bdef
/DA { [6 dpi2point mul] 0 setdash } bdef
/DD { [.5 dpi2point mul 4 dpi2point mul 6 dpi2point mul 4
  dpi2point mul] 0 setdash } bdef
% macros for lines and objects
/L {lineto stroke} bdef
/MP {3 1 roll moveto 1 sub {rlineto} repeat} bdef
/AP {{rlineto} repeat} bdef
/PDlw -1 def
/W {/PDlw currentlinewidth def setlinewidth} def
/PP {closepath eofill} bdef
/DP {closepath stroke} bdef
/MR {4 -2 roll moveto dup  0 exch rlineto exch 0 rlineto
  neg 0 exch rlineto closepath} bdef
/FR {MR stroke} bdef
/PR {MR fill} bdef
/L1i {{currentfile picstr readhexstring pop} image} bdef
/tMatrix matrix def
/MakeOval {newpath tMatrix currentmatrix pop translate scale
0 0 1 0 360 arc tMatrix setmatrix} bdef
/FO {MakeOval stroke} bdef
/PO {MakeOval fill} bdef
/PD {currentlinewidth 2 div 0 360 arc fill
   PDlw -1 eq not {PDlw w /PDlw -1 def} if} def
/FA {newpath tMatrix currentmatrix pop translate scale
  0 0 1 5 -2 roll arc tMatrix setmatrix stroke} bdef
/PA {newpath tMatrix currentmatrix pop	translate 0 0 moveto scale
  0 0 1 5 -2 roll arc closepath tMatrix setmatrix fill} bdef
/FAn {newpath tMatrix currentmatrix pop translate scale
  0 0 1 5 -2 roll arcn tMatrix setmatrix stroke} bdef
/PAn {newpath tMatrix currentmatrix pop translate 0 0 moveto scale
  0 0 1 5 -2 roll arcn closepath tMatrix setmatrix fill} bdef
/vradius 0 def /hradius 0 def /lry 0 def
/lrx 0 def /uly 0 def /ulx 0 def /rad 0 def
/MRR {/vradius xdef /hradius xdef /lry xdef /lrx xdef /uly xdef
  /ulx xdef newpath tMatrix currentmatrix pop ulx hradius add uly
  vradius add translate hradius vradius scale 0 0 1 180 270 arc 
  tMatrix setmatrix lrx hradius sub uly vradius add translate
  hradius vradius scale 0 0 1 270 360 arc tMatrix setmatrix
  lrx hradius sub lry vradius sub translate hradius vradius scale
  0 0 1 0 90 arc tMatrix setmatrix ulx hradius add lry vradius sub
  translate hradius vradius scale 0 0 1 90 180 arc tMatrix setmatrix
  closepath} bdef
/FRR {MRR stroke } bdef
/PRR {MRR fill } bdef
/MlrRR {/lry xdef /lrx xdef /uly xdef /ulx xdef /rad lry uly sub 2 div def
  newpath tMatrix currentmatrix pop ulx rad add uly rad add translate
  rad rad scale 0 0 1 90 270 arc tMatrix setmatrix lrx rad sub lry rad
  sub translate rad rad scale 0 0 1 270 90 arc tMatrix setmatrix
  closepath} bdef
/FlrRR {MlrRR stroke } bdef
/PlrRR {MlrRR fill } bdef
/MtbRR {/lry xdef /lrx xdef /uly xdef /ulx xdef /rad lrx ulx sub 2 div def
  newpath tMatrix currentmatrix pop ulx rad add uly rad add translate
  rad rad scale 0 0 1 180 360 arc tMatrix setmatrix lrx rad sub lry rad
  sub translate rad rad scale 0 0 1 0 180 arc tMatrix setmatrix
  closepath} bdef
/FtbRR {MtbRR stroke } bdef
/PtbRR {MtbRR fill } bdef
/stri 6 array def /dtri 6 array def
/smat 6 array def /dmat 6 array def
/tmat1 6 array def /tmat2 6 array def /dif 3 array def
/asub {/ind2 exch def /ind1 exch def dup dup
  ind1 get exch ind2 get sub exch } bdef
/tri_to_matrix {
  2 0 asub 3 1 asub 4 0 asub 5 1 asub
  dup 0 get exch 1 get 7 -1 roll astore } bdef
/compute_transform {
  dmat dtri tri_to_matrix tmat1 invertmatrix 
  smat stri tri_to_matrix tmat2 concatmatrix } bdef
/ds {stri astore pop} bdef
/dt {dtri astore pop} bdef
/db {2 copy /cols xdef /rows xdef mul dup 3 mul string
  currentfile 
  3 index 0 eq {/ASCIIHexDecode filter}
  {/ASCII85Decode filter 3 index 2 eq {/RunLengthDecode filter} if }
  ifelse exch readstring pop
  dup 0 3 index getinterval /rbmap xdef
  dup 2 index dup getinterval /gbmap xdef
  1 index dup 2 mul exch getinterval /bbmap xdef pop pop}bdef
/it {gs np dtri aload pop moveto lineto lineto cp c
  cols rows 8 compute_transform 
  rbmap gbmap bbmap true 3 colorimage gr}bdef
/il {newpath moveto lineto stroke}bdef
currentdict end def
%%EndProlog

%%BeginSetup
MathWorks begin

0 cap

end
%%EndSetup

%%Page: 1 1
%%BeginPageSetup
%%PageBoundingBox:    39   236   571   554
MathWorks begin
bpage
%%EndPageSetup

%%BeginObject: obj1
bplot

/dpi2point 12 def
portraitMode 0468 6648 csm

    0     0  6390  3807 rc
85 dict begin %Colortable dictionary
/c0 { 0.000000 0.000000 0.000000 sr} bdef
/c1 { 1.000000 1.000000 1.000000 sr} bdef
/c2 { 0.900000 0.000000 0.000000 sr} bdef
/c3 { 0.000000 0.820000 0.000000 sr} bdef
/c4 { 0.000000 0.000000 0.800000 sr} bdef
/c5 { 0.910000 0.820000 0.320000 sr} bdef
/c6 { 1.000000 0.260000 0.820000 sr} bdef
/c7 { 0.000000 0.820000 0.820000 sr} bdef
c0
1 j
1 sg
   0    0 6391 3808 rf
6 w
0 1299 3971 0 0 -1299 831 1584 4 MP
PP
-3971 0 0 1299 3971 0 0 -1299 831 1584 5 MP stroke
4 w
DO
SO
6 w
0 sg
 831 1584 mt 4802 1584 L
 831 1584 mt  831  285 L
 831 1584 mt  831 1544 L
%%IncludeResource: font Helvetica
/Helvetica /WindowsLatin1Encoding 120 FMSR

 798 1729 mt 
(0) s
1228 1584 mt 1228 1544 L
1162 1729 mt 
(10) s
1625 1584 mt 1625 1544 L
1559 1729 mt 
(20) s
2022 1584 mt 2022 1544 L
1956 1729 mt 
(30) s
2419 1584 mt 2419 1544 L
2353 1729 mt 
(40) s
2816 1584 mt 2816 1544 L
2750 1729 mt 
(50) s
3213 1584 mt 3213 1544 L
3147 1729 mt 
(60) s
3610 1584 mt 3610 1544 L
3544 1729 mt 
(70) s
4007 1584 mt 4007 1544 L
3941 1729 mt 
(80) s
4404 1584 mt 4404 1544 L
4338 1729 mt 
(90) s
4802 1584 mt 4802 1544 L
4702 1729 mt 
(100) s
 831 1584 mt  870 1584 L
 730 1628 mt 
(0) s
 831 1151 mt  870 1151 L
 596 1195 mt 
(100) s
 831  718 mt  870  718 L
 596  762 mt 
(200) s
 831  286 mt  870  286 L
 596  330 mt 
(300) s
gs 831 286 3972 1299 rc
37 -1232 39 1016 831 502 3 MP stroke
37 -1274 38 1274 912 286 3 MP stroke
40 -20 40 22 40 -24 39 25 40 -26 40 28 39 -29 40 31 
40 -32 40 34 39 -36 40 38 40 -40 39 42 40 -44 40 47 
40 -49 39 52 40 -54 40 57 39 -60 40 64 40 -66 40 69 
39 -72 40 76 40 -80 39 85 40 -88 40 93 40 -97 39 102 
40 -106 40 112 39 -116 40 122 40 -126 39 132 40 -137 40 144 
40 -149 39 157 40 -162 40 170 39 -176 40 185 40 -191 40 201 
39 -207 40 217 40 -223 39 234 40 -241 40 252 40 -258 39 271 
40 -278 40 291 39 -299 40 314 40 -321 40 336 39 -344 40 361 
40 -369 39 387 40 -395 40 415 39 -424 40 445 40 -454 40 477 
39 -486 40 512 40 -521 39 549 40 -558 40 589 40 -599 39 633 
40 -643 40 683 39 -693 40 738 40 -749 40 803 39 -814 40 877 
40 -888 39 967 40 -979 40 1080 40 -1091 39 1222 40 -1230 37 1277 
992 286 97 MP stroke
DA
39 -1236 40 965 39 -1005 831 1562 4 MP stroke
39 -1275 39 1275 950 286 3 MP stroke
40 21 40 -22 40 23 39 -24 40 26 40 -27 39 29 40 -31 
40 33 40 -34 39 36 40 -38 40 40 39 -42 40 45 40 -47 
40 49 39 -51 40 54 40 -56 39 60 40 -63 40 66 40 -69 
39 73 40 -76 40 80 39 -83 40 88 40 -92 40 97 39 -100 
40 105 40 -109 39 115 40 -119 40 125 39 -130 40 137 40 -142 
40 149 39 -154 40 162 40 -167 39 175 40 -180 40 189 40 -195 
39 205 40 -211 40 221 39 -227 40 238 40 -245 40 257 39 -264 
40 277 40 -284 39 298 40 -305 40 320 40 -327 39 343 40 -351 
40 368 39 -376 40 394 40 -402 39 422 40 -430 40 452 40 -460 
39 485 40 -494 40 520 39 -529 40 559 40 -568 40 601 39 -611 
40 648 40 -658 39 701 40 -711 40 762 40 -772 39 832 40 -843 
40 918 39 -929 40 1025 40 -1036 40 1160 39 -1167 39 1278 1030 286 96 MP stroke
DD
40 -1 40 0 40 0 39 0 40 -1 40 0 39 -1 40 0 
40 0 40 -1 39 0 40 0 40 -1 39 0 40 -1 40 0 
40 -1 39 0 40 -1 40 0 39 -1 40 0 40 -1 40 0 
39 -1 40 0 40 -1 39 0 40 -2 40 0 40 -1 39 0 
40 -2 40 1 39 -2 40 0 40 -2 39 0 40 -2 40 1 
40 -2 39 0 40 -2 40 0 39 -3 40 1 40 -3 40 0 
39 -2 40 0 40 -3 39 0 40 -3 40 1 40 -4 39 0 
40 -4 40 1 39 -4 40 0 40 -4 40 0 39 -5 40 1 
40 -6 39 1 40 -6 40 1 39 -7 40 1 40 -8 40 2 
39 -9 40 1 40 -9 39 1 40 -10 40 1 40 -12 39 1 
40 -13 40 1 39 -15 40 1 40 -18 40 2 39 -23 40 2 
40 -27 39 2 40 -35 40 2 40 -48 39 3 40 -72 40 1 
39 -111 40 -3 40 -184 39 -3 831 1151 101 MP stroke
gr

DD
2702 1872 mt 
(time) s
 514 1335 mt  -90 rotate
(population size) s
90 rotate
 814 1627 mt 
( ) s
4786  328 mt 
( ) s
gs 831 286 3972 1299 rc
SO
37 -1232 39 1016 831 502 3 MP stroke
37 -1274 38 1274 912 286 3 MP stroke
40 -20 40 22 40 -24 39 25 40 -26 40 28 39 -29 40 31 
40 -32 40 34 39 -36 40 38 40 -40 39 42 40 -44 40 47 
40 -49 39 52 40 -54 40 57 39 -60 40 64 40 -66 40 69 
39 -72 40 76 40 -80 39 85 40 -88 40 93 40 -97 39 102 
40 -106 40 112 39 -116 40 122 40 -126 39 132 40 -137 40 144 
40 -149 39 157 40 -162 40 170 39 -176 40 185 40 -191 40 201 
39 -207 40 217 40 -223 39 234 40 -241 40 252 40 -258 39 271 
40 -278 40 291 39 -299 40 314 40 -321 40 336 39 -344 40 361 
40 -369 39 387 40 -395 40 415 39 -424 40 445 40 -454 40 477 
39 -486 40 512 40 -521 39 549 40 -558 40 589 40 -599 39 633 
40 -643 40 683 39 -693 40 738 40 -749 40 803 39 -814 40 877 
40 -888 39 967 40 -979 40 1080 40 -1091 39 1222 40 -1230 37 1277 
992 286 97 MP stroke
DA
39 -1236 40 965 39 -1005 831 1562 4 MP stroke
39 -1275 39 1275 950 286 3 MP stroke
40 21 40 -22 40 23 39 -24 40 26 40 -27 39 29 40 -31 
40 33 40 -34 39 36 40 -38 40 40 39 -42 40 45 40 -47 
40 49 39 -51 40 54 40 -56 39 60 40 -63 40 66 40 -69 
39 73 40 -76 40 80 39 -83 40 88 40 -92 40 97 39 -100 
40 105 40 -109 39 115 40 -119 40 125 39 -130 40 137 40 -142 
40 149 39 -154 40 162 40 -167 39 175 40 -180 40 189 40 -195 
39 205 40 -211 40 221 39 -227 40 238 40 -245 40 257 39 -264 
40 277 40 -284 39 298 40 -305 40 320 40 -327 39 343 40 -351 
40 368 39 -376 40 394 40 -402 39 422 40 -430 40 452 40 -460 
39 485 40 -494 40 520 39 -529 40 559 40 -568 40 601 39 -611 
40 648 40 -658 39 701 40 -711 40 762 40 -772 39 832 40 -843 
40 918 39 -929 40 1025 40 -1036 40 1160 39 -1167 39 1278 1030 286 96 MP stroke
DD
40 -1 40 0 40 0 39 0 40 -1 40 0 39 -1 40 0 
40 0 40 -1 39 0 40 0 40 -1 39 0 40 -1 40 0 
40 -1 39 0 40 -1 40 0 39 -1 40 0 40 -1 40 0 
39 -1 40 0 40 -1 39 0 40 -2 40 0 40 -1 39 0 
40 -2 40 1 39 -2 40 0 40 -2 39 0 40 -2 40 1 
40 -2 39 0 40 -2 40 0 39 -3 40 1 40 -3 40 0 
39 -2 40 0 40 -3 39 0 40 -3 40 1 40 -4 39 0 
40 -4 40 1 39 -4 40 0 40 -4 40 0 39 -5 40 1 
40 -6 39 1 40 -6 40 1 39 -7 40 1 40 -8 40 2 
39 -9 40 1 40 -9 39 1 40 -10 40 1 40 -12 39 1 
40 -13 40 1 39 -15 40 1 40 -18 40 2 39 -23 40 2 
40 -27 39 2 40 -35 40 2 40 -48 39 3 40 -72 40 1 
39 -111 40 -3 40 -184 39 -3 831 1151 101 MP stroke
SO
gr

SO
1 sg
0 1299 1262 0 0 -1299 903 3388 4 MP
PP
-1262 0 0 1299 1262 0 0 -1299 903 3388 5 MP stroke
4 w
DO
SO
6 w
0 sg
 903 3388 mt 2165 3388 L
 903 3388 mt  903 2089 L
 903 3388 mt  903 3375 L
 870 3533 mt 
(0) s
1534 3388 mt 1534 3375 L
1434 3533 mt 
(200) s
2165 3388 mt 2165 3375 L
2065 3533 mt 
(400) s
 903 3388 mt  915 3388 L
 802 3432 mt 
(0) s
 903 3063 mt  915 3063 L
 668 3107 mt 
(100) s
 903 2738 mt  915 2738 L
 668 2782 mt 
(200) s
 903 2413 mt  915 2413 L
 668 2457 mt 
(300) s
 903 2089 mt  915 2089 L
 668 2133 mt 
(400) s
gs 903 2089 1263 1300 rc
16 0 0 -16 -17 0 0 17 17 0 0 -18 -18 0 0 19 
19 0 0 -20 -20 0 0 21 21 0 0 -22 -22 0 0 23 
23 0 0 -24 -25 0 0 26 26 0 0 -27 -27 0 0 29 
29 0 0 -30 -31 0 0 31 32 0 0 -33 -34 0 0 35 
36 0 0 -36 -38 0 0 39 39 0 0 -41 -42 0 0 43 
44 0 0 -45 -46 0 0 47 48 0 0 -49 -51 0 0 52 
53 0 0 -54 -56 0 0 57 59 0 0 -60 -62 0 0 64 
64 0 0 -66 -68 0 0 69 71 0 0 -72 -74 0 0 76 
77 0 0 -79 -81 0 0 84 84 0 0 -87 -89 0 0 91 
92 0 0 -94 -97 0 0 99 100 0 0 -103 -105 0 0 108 
109 0 0 -112 -114 0 0 118 118 0 0 -122 -124 0 0 128 
128 0 0 -132 -135 0 0 139 139 0 0 -143 -146 0 0 150 
151 0 0 -155 -158 0 0 163 162 0 0 -167 -170 0 0 175 
175 0 0 -180 -184 0 0 189 189 0 0 -195 -198 0 0 204 
203 0 0 -209 -213 0 0 219 218 0 0 -224 -228 0 0 235 
234 0 0 -241 -246 0 0 253 252 0 0 -259 -264 0 0 271 
269 0 0 -277 -282 0 0 291 289 0 0 -297 -303 0 0 311 
309 0 0 -317 -325 0 0 333 331 0 0 -340 -348 0 0 358 
355 0 0 -365 -373 0 0 384 379 0 0 -391 -400 0 0 412 
407 0 0 -419 -429 0 0 442 436 0 0 -449 -462 0 0 475 
470 0 0 -482 -498 0 0 512 505 0 0 -520 -539 0 0 554 
547 0 0 -562 -585 0 0 602 593 0 0 -610 -640 0 0 658 
648 0 0 -667 -705 0 0 726 714 0 0 -735 -788 0 0 811 
796 0 0 -819 -891 0 0 917 897 0 0 -923 -1000 0 0 1029 
997 0 0 -1027 -990 0 0 1020 960 0 0 -989 -741 0 1691 3339 200 MP stroke
94 -98 903 3388 2 MP stroke
gr

 837 3676 mt 
(number of larvae at time, t) s
 586 3503 mt  -90 rotate
(number of larvae at time, t+1) s
90 rotate
gs 903 2089 1263 1300 rc
16 0 0 -16 -17 0 0 17 17 0 0 -18 -18 0 0 19 
19 0 0 -20 -20 0 0 21 21 0 0 -22 -22 0 0 23 
23 0 0 -24 -25 0 0 26 26 0 0 -27 -27 0 0 29 
29 0 0 -30 -31 0 0 31 32 0 0 -33 -34 0 0 35 
36 0 0 -36 -38 0 0 39 39 0 0 -41 -42 0 0 43 
44 0 0 -45 -46 0 0 47 48 0 0 -49 -51 0 0 52 
53 0 0 -54 -56 0 0 57 59 0 0 -60 -62 0 0 64 
64 0 0 -66 -68 0 0 69 71 0 0 -72 -74 0 0 76 
77 0 0 -79 -81 0 0 84 84 0 0 -87 -89 0 0 91 
92 0 0 -94 -97 0 0 99 100 0 0 -103 -105 0 0 108 
109 0 0 -112 -114 0 0 118 118 0 0 -122 -124 0 0 128 
128 0 0 -132 -135 0 0 139 139 0 0 -143 -146 0 0 150 
151 0 0 -155 -158 0 0 163 162 0 0 -167 -170 0 0 175 
175 0 0 -180 -184 0 0 189 189 0 0 -195 -198 0 0 204 
203 0 0 -209 -213 0 0 219 218 0 0 -224 -228 0 0 235 
234 0 0 -241 -246 0 0 253 252 0 0 -259 -264 0 0 271 
269 0 0 -277 -282 0 0 291 289 0 0 -297 -303 0 0 311 
309 0 0 -317 -325 0 0 333 331 0 0 -340 -348 0 0 358 
355 0 0 -365 -373 0 0 384 379 0 0 -391 -400 0 0 412 
407 0 0 -419 -429 0 0 442 436 0 0 -449 -462 0 0 475 
470 0 0 -482 -498 0 0 512 505 0 0 -520 -539 0 0 554 
547 0 0 -562 -585 0 0 602 593 0 0 -610 -640 0 0 658 
648 0 0 -667 -705 0 0 726 714 0 0 -735 -788 0 0 811 
796 0 0 -819 -891 0 0 917 897 0 0 -923 -1000 0 0 1029 
997 0 0 -1027 -990 0 0 1020 960 0 0 -989 -741 0 1691 3339 200 MP stroke
946 -975 903 3388 2 MP stroke
gr

1 sg
0 1299 1262 0 0 -1299 2697 3388 4 MP
PP
-1262 0 0 1299 1262 0 0 -1299 2697 3388 5 MP stroke
4 w
DO
SO
6 w
0 sg
2697 3388 mt 3959 3388 L
2697 3388 mt 2697 2089 L
2697 3388 mt 2697 3375 L
2664 3533 mt 
(0) s
3328 3388 mt 3328 3375 L
3228 3533 mt 
(200) s
3959 3388 mt 3959 3375 L
3859 3533 mt 
(400) s
2697 3388 mt 2709 3388 L
2596 3432 mt 
(0) s
2697 3063 mt 2709 3063 L
2462 3107 mt 
(100) s
2697 2738 mt 2709 2738 L
2462 2782 mt 
(200) s
2697 2413 mt 2709 2413 L
2462 2457 mt 
(300) s
2697 2089 mt 2709 2089 L
2462 2133 mt 
(400) s
gs 2697 2089 1263 1300 rc
-15 0 0 16 16 0 0 -16 -18 0 0 17 18 0 0 -18 
-19 0 0 19 20 0 0 -20 -21 0 0 22 22 0 0 -23 
-23 0 0 24 24 0 0 -25 -26 0 0 27 28 0 0 -29 
-30 0 0 30 31 0 0 -31 -32 0 0 33 33 0 0 -35 
-35 0 0 37 37 0 0 -38 -40 0 0 41 42 0 0 -43 
-44 0 0 45 46 0 0 -47 -49 0 0 50 51 0 0 -52 
-53 0 0 55 55 0 0 -57 -59 0 0 60 61 0 0 -63 
-64 0 0 66 67 0 0 -68 -70 0 0 72 73 0 0 -75 
-77 0 0 79 79 0 0 -82 -84 0 0 86 88 0 0 -89 
-92 0 0 94 95 0 0 -98 -100 0 0 103 103 0 0 -106 
-108 0 0 112 112 0 0 -116 -118 0 0 121 122 0 0 -125 
-128 0 0 132 132 0 0 -136 -139 0 0 142 143 0 0 -146 
-150 0 0 154 154 0 0 -159 -161 0 0 166 166 0 0 -171 
-174 0 0 180 179 0 0 -184 -188 0 0 193 193 0 0 -199 
-202 0 0 208 207 0 0 -213 -217 0 0 224 222 0 0 -229 
-233 0 0 240 238 0 0 -246 -250 0 0 258 256 0 0 -263 
-268 0 0 275 273 0 0 -281 -287 0 0 295 293 0 0 -301 
-307 0 0 317 313 0 0 -323 -329 0 0 339 336 0 0 -346 
-354 0 0 364 360 0 0 -370 -379 0 0 390 385 0 0 -397 
-407 0 0 419 414 0 0 -426 -438 0 0 451 445 0 0 -458 
-472 0 0 486 479 0 0 -493 -511 0 0 525 519 0 0 -533 
-556 0 0 571 563 0 0 -579 -607 0 0 625 615 0 0 -633 
-669 0 0 689 677 0 0 -697 -747 0 0 769 755 0 0 -777 
-846 0 0 870 851 0 0 -876 -948 0 0 976 946 0 0 -974 
-940 0 0 968 911 0 0 -938 -703 0 0 724 733 0 2712 2617 200 MP stroke
946 -975 2697 3388 2 MP stroke
gr

2628 3676 mt 
(number of pupae at time, t) s
2380 3506 mt  -90 rotate
(number of pupae at time, t+1) s
90 rotate
gs 2697 2089 1263 1300 rc
-15 0 0 16 16 0 0 -16 -18 0 0 17 18 0 0 -18 
-19 0 0 19 20 0 0 -20 -21 0 0 22 22 0 0 -23 
-23 0 0 24 24 0 0 -25 -26 0 0 27 28 0 0 -29 
-30 0 0 30 31 0 0 -31 -32 0 0 33 33 0 0 -35 
-35 0 0 37 37 0 0 -38 -40 0 0 41 42 0 0 -43 
-44 0 0 45 46 0 0 -47 -49 0 0 50 51 0 0 -52 
-53 0 0 55 55 0 0 -57 -59 0 0 60 61 0 0 -63 
-64 0 0 66 67 0 0 -68 -70 0 0 72 73 0 0 -75 
-77 0 0 79 79 0 0 -82 -84 0 0 86 88 0 0 -89 
-92 0 0 94 95 0 0 -98 -100 0 0 103 103 0 0 -106 
-108 0 0 112 112 0 0 -116 -118 0 0 121 122 0 0 -125 
-128 0 0 132 132 0 0 -136 -139 0 0 142 143 0 0 -146 
-150 0 0 154 154 0 0 -159 -161 0 0 166 166 0 0 -171 
-174 0 0 180 179 0 0 -184 -188 0 0 193 193 0 0 -199 
-202 0 0 208 207 0 0 -213 -217 0 0 224 222 0 0 -229 
-233 0 0 240 238 0 0 -246 -250 0 0 258 256 0 0 -263 
-268 0 0 275 273 0 0 -281 -287 0 0 295 293 0 0 -301 
-307 0 0 317 313 0 0 -323 -329 0 0 339 336 0 0 -346 
-354 0 0 364 360 0 0 -370 -379 0 0 390 385 0 0 -397 
-407 0 0 419 414 0 0 -426 -438 0 0 451 445 0 0 -458 
-472 0 0 486 479 0 0 -493 -511 0 0 525 519 0 0 -533 
-556 0 0 571 563 0 0 -579 -607 0 0 625 615 0 0 -633 
-669 0 0 689 677 0 0 -697 -747 0 0 769 755 0 0 -777 
-846 0 0 870 851 0 0 -876 -948 0 0 976 946 0 0 -974 
-940 0 0 968 911 0 0 -938 -703 0 0 724 733 0 2712 2617 200 MP stroke
946 -975 2697 3388 2 MP stroke
gr

1 sg
0 1299 1263 0 0 -1299 4491 3388 4 MP
PP
-1263 0 0 1299 1263 0 0 -1299 4491 3388 5 MP stroke
4 w
DO
SO
6 w
0 sg
4491 3388 mt 5754 3388 L
4491 3388 mt 4491 2089 L
4491 3388 mt 4491 3375 L
4458 3533 mt 
(0) s
4912 3388 mt 4912 3375 L
4812 3533 mt 
(100) s
5333 3388 mt 5333 3375 L
5233 3533 mt 
(200) s
5754 3388 mt 5754 3375 L
5654 3533 mt 
(300) s
4491 3388 mt 4503 3388 L
4390 3432 mt 
(0) s
4491 2955 mt 4503 2955 L
4256 2999 mt 
(100) s
4491 2522 mt 4503 2522 L
4256 2566 mt 
(200) s
4491 2089 mt 4503 2089 L
4256 2133 mt 
(300) s
gs 4491 2089 1264 1300 rc
1 0 1 -1 1 -1 1 -1 1 -1 1 -1 1 -1 1 -1 
1 -1 1 -1 1 -1 1 -1 0 -2 2 0 1 -1 1 -1 
0 -2 2 0 0 -1 2 0 0 -2 -1 0 2 0 0 -2 
2 0 0 -2 0 1 2 0 0 -3 0 1 2 0 0 -3 
0 1 2 0 0 -3 3 0 -1 -3 1 0 2 1 0 -3 
3 0 0 -3 3 0 0 -3 4 0 -1 -4 1 0 3 1 
0 -5 0 1 4 0 -1 -5 1 0 5 1 -1 -5 1 0 
4 1 -1 -6 1 0 6 1 0 -6 -2 0 0 1 7 0 
-1 -7 1 0 7 1 0 -8 -2 0 0 1 9 0 -1 -8 
1 0 8 1 0 -9 -2 0 0 1 11 0 0 -11 -2 0 
0 2 12 0 -1 -12 1 0 12 1 0 -13 -2 0 0 1 
16 0 0 -16 -2 0 0 2 18 0 0 -18 -2 0 0 1 
22 0 0 -22 -2 0 0 2 27 0 0 -27 -2 0 0 2 
34 0 0 -35 -2 0 0 2 46 0 0 -48 -2 0 0 2 
70 0 0 -72 -2 0 0 2 109 0 0 -112 3 0 0 -3 
179 0 0 -184 2 0 4912 2952 124 MP stroke
1263 -1299 4491 3388 2 MP stroke
gr

4422 3676 mt 
(number of pupae at time, t) s
4174 3506 mt  -90 rotate
(number of pupae at time, t+1) s
90 rotate
gs 4491 2089 1264 1300 rc
1 0 1 -1 1 -1 1 -1 1 -1 1 -1 1 -1 1 -1 
1 -1 1 -1 1 -1 1 -1 0 -2 2 0 1 -1 1 -1 
0 -2 2 0 0 -1 2 0 0 -2 -1 0 2 0 0 -2 
2 0 0 -2 0 1 2 0 0 -3 0 1 2 0 0 -3 
0 1 2 0 0 -3 3 0 -1 -3 1 0 2 1 0 -3 
3 0 0 -3 3 0 0 -3 4 0 -1 -4 1 0 3 1 
0 -5 0 1 4 0 -1 -5 1 0 5 1 -1 -5 1 0 
4 1 -1 -6 1 0 6 1 0 -6 -2 0 0 1 7 0 
-1 -7 1 0 7 1 0 -8 -2 0 0 1 9 0 -1 -8 
1 0 8 1 0 -9 -2 0 0 1 11 0 0 -11 -2 0 
0 2 12 0 -1 -12 1 0 12 1 0 -13 -2 0 0 1 
16 0 0 -16 -2 0 0 2 18 0 0 -18 -2 0 0 1 
22 0 0 -22 -2 0 0 2 27 0 0 -27 -2 0 0 2 
34 0 0 -35 -2 0 0 2 46 0 0 -48 -2 0 0 2 
70 0 0 -72 -2 0 0 2 109 0 0 -112 3 0 0 -3 
179 0 0 -184 2 0 4912 2952 124 MP stroke
1263 -1299 4491 3388 2 MP stroke
gr

5393  421 mt 
(larvae) s
gs 4923 286 840 481 rc
361 0 4995 378 2 MP stroke
gr

5393  569 mt 
(pupae) s
gs 4923 286 840 481 rc
DA
361 0 4995 526 2 MP stroke
SO
gr

5393  717 mt 
(adults) s
gs 4923 286 840 481 rc
DD
361 0 4995 673 2 MP stroke
SO
gr


end %%Color Dict

eplot
%%EndObject

epage
end

showpage

%%Trailer
%%EOF
