\relax 
\citation{Dym}
\citation{Bliss}
\citation{Box}
\@writefile{toc}{\contentsline {chapter}{\numberline {1}Introduction to mathematical modelling}{3}}
\@writefile{lof}{\addvspace {10\p@ }}
\@writefile{lot}{\addvspace {10\p@ }}
\@writefile{toc}{\contentsline {section}{\numberline {1.1}What is a mathematical model?}{3}}
\@writefile{toc}{\contentsline {section}{\numberline {1.2}The types of models that are emphasized in MATH 4190}{3}}
\@writefile{toc}{\contentsline {section}{\numberline {1.3}A necessary property of a useful model}{3}}
\citation{Barnes}
\@writefile{toc}{\contentsline {section}{\numberline {1.4}Example 1: Cooling cup of coffee}{4}}
\newlabel{sec:coffee}{{1.4}{4}}
\newlabel{eq:LL}{{1.3}{4}}
\citation{Otto}
\@writefile{toc}{\contentsline {chapter}{\numberline {2}Mathematical modelling: a how to guide}{5}}
\@writefile{lof}{\addvspace {10\p@ }}
\@writefile{lot}{\addvspace {10\p@ }}
\@writefile{toc}{\contentsline {section}{\numberline {2.1}Terminology}{5}}
\@writefile{toc}{\contentsline {subsection}{\numberline {2.1.1}Variables and parameters}{5}}
\newlabel{sec:Term}{{2.1.1}{5}}
\newlabel{eq:X}{{2.1}{5}}
\newlabel{eq:Y}{{2.2}{5}}
\citation{Otto}
\@writefile{toc}{\contentsline {section}{\numberline {2.2}Derivation of a discrete time model}{6}}
\newlabel{sec:OE}{{2.2}{6}}
\newlabel{eq:genDT1}{{2.3}{6}}
\@writefile{toc}{\contentsline {subsection}{\numberline {2.2.1}Example: Mouse model}{6}}
\newlabel{sec:mouse}{{2.2.1}{6}}
\newlabel{eq:mouse1}{{2.4}{6}}
\newlabel{eq:mouse1b}{{2.5}{6}}
\newlabel{eq:mouse2}{{2.6}{6}}
\newlabel{eq:mouse2b}{{2.7}{6}}
\newlabel{eq:mouse3}{{2.8}{7}}
\newlabel{eq:mouse3b}{{2.9}{7}}
\newlabel{eq:mouse4}{{2.10}{7}}
\newlabel{eq:mouse4b}{{2.11}{7}}
\newlabel{eq:mouse5}{{2.12}{7}}
\newlabel{eq:mouse5b}{{2.13}{7}}
\newlabel{eq:Mouse}{{2.16}{7}}
\newlabel{eq:Mouseb}{{2.17}{7}}
\newlabel{eq:genDT}{{2.20}{7}}
\citation{Otto}
\@writefile{toc}{\contentsline {section}{\numberline {2.3}Derivation of a continuous time model}{8}}
\newlabel{sec:CT}{{2.3}{8}}
\newlabel{eq:genCT}{{2.21}{8}}
\@writefile{toc}{\contentsline {subsection}{\numberline {2.3.1}HIV model}{8}}
\newlabel{sec:HIV}{{2.3.1}{8}}
\newlabel{eq:HIV1}{{2.22}{8}}
\citation{Powell}
\citation{Powell}
\@writefile{toc}{\contentsline {subsection}{\numberline {2.3.2}Leaky bucket}{9}}
\newlabel{eq:dP1a}{{2.23}{9}}
\newlabel{eq:dP2a}{{2.24}{9}}
\newlabel{eq:dP3az}{{2.25}{9}}
\@writefile{toc}{\contentsline {section}{\numberline {2.4}Making connections: discrete time and continuous time}{9}}
\citation{Otto}
\newlabel{eq:BA}{{2.27}{10}}
\newlabel{eq:BA2}{{2.28}{10}}
\newlabel{eq:cc}{{2.29}{10}}
\@writefile{toc}{\contentsline {section}{\numberline {2.5}Common assumptions}{10}}
\@writefile{toc}{\contentsline {subsection}{\numberline {2.5.1}Discrete quantities modelled as continuous quantities}{10}}
\@writefile{toc}{\contentsline {subsection}{\numberline {2.5.2}Exponential distributions}{10}}
\citation{Otto}
\citation{Bliss}
\@writefile{toc}{\contentsline {subsection}{\numberline {2.5.3}Same rates}{11}}
\@writefile{toc}{\contentsline {subsection}{\numberline {2.5.4}Males and females}{11}}
\@writefile{toc}{\contentsline {subsection}{\numberline {2.5.5}Discrete or continuous time}{11}}
\newlabel{sec:DTorCT}{{2.5.5}{11}}
\@writefile{toc}{\contentsline {section}{\numberline {2.6}Four steps of mathematical modelling}{11}}
\citation{Bliss}
\citation{Bliss}
\@writefile{toc}{\contentsline {subsection}{\numberline {2.6.1}Step 1: Choose a question}{12}}
\@writefile{toc}{\contentsline {subsection}{\numberline {2.6.2}Step 2: Deriving the equations}{12}}
\newlabel{sec:Step2}{{2.6.2}{12}}
\@writefile{toc}{\contentsline {subsection}{\numberline {2.6.3}Step 3: Analyze the model}{12}}
\newlabel{sec:Step3}{{2.6.3}{12}}
\citation{Bliss}
\citation{Bliss}
\citation{Bliss}
\@writefile{toc}{\contentsline {subsection}{\numberline {2.6.4}Step 4: Interpret the results}{13}}
\@writefile{toc}{\contentsline {subsection}{\numberline {2.6.5}Some supporting material}{13}}
\@writefile{toc}{\contentsline {subsubsection}{Reasons to make a mathematical model}{13}}
\newlabel{sec:Reasons}{{2.6.5}{13}}
\citation{Otto}
\citation{Otto}
\@writefile{toc}{\contentsline {section}{\numberline {2.7}Non-dimensionalizing a model}{14}}
\newlabel{sec:ND}{{2.7}{14}}
\@writefile{lof}{\contentsline {figure}{\numberline {2.1}{\ignorespaces }}{14}}
\newlabel{eq:Nt}{{2.31}{14}}
\newlabel{eq:Pt}{{2.32}{14}}
\newlabel{eq:nstar}{{2.33}{14}}
\newlabel{eq:pstar}{{2.34}{14}}
\citation{Otto}
\citation{Otto}
\citation{Otto}
\@writefile{lof}{\contentsline {figure}{\numberline {2.2}{\ignorespaces }}{16}}
\@writefile{lof}{\contentsline {figure}{\numberline {2.3}{\ignorespaces }}{17}}
\@writefile{lof}{\contentsline {figure}{\numberline {2.4}{\ignorespaces }}{18}}
\@writefile{toc}{\contentsline {section}{\numberline {2.8}Summary}{19}}
\@writefile{toc}{\contentsline {chapter}{\numberline {3}Analysis of dynamical systems (Review)}{20}}
\@writefile{lof}{\addvspace {10\p@ }}
\@writefile{lot}{\addvspace {10\p@ }}
\newlabel{sec:Review}{{3}{20}}
\@writefile{toc}{\contentsline {section}{\numberline {3.1}Model solutions}{20}}
\@writefile{toc}{\contentsline {section}{\numberline {3.2}The stability of fixed points}{20}}
\newlabel{eq:ODEs}{{3.2}{20}}
\newlabel{eq:RE}{{3.3}{20}}
\citation{EK}
\citation{Strogatz}
\citation{EK}
\citation{Strogatz}
\@writefile{toc}{\contentsline {subsection}{\numberline {3.2.1}Characterizing the local stability of an equilibrium point - continuous time}{21}}
\@writefile{toc}{\contentsline {subsection}{\numberline {3.2.2}Characterizing the local stability of an equilibrium point - discrete time}{21}}
\@writefile{toc}{\contentsline {subsubsection}{Simple rules for characterizing the local stability of two-dimensional systems of ODEs}{21}}
\@writefile{lof}{\contentsline {figure}{\numberline {3.1}{\ignorespaces }}{22}}
\newlabel{fig:LS}{{3.1}{22}}
\citation{EK}
\citation{EK}
\@writefile{toc}{\contentsline {subsection}{\numberline {3.2.3}Local stability for ODEs: the Routh-Hurwitz conditions}{23}}
\@writefile{lof}{\contentsline {figure}{\numberline {3.2}{\ignorespaces }}{23}}
\newlabel{fig:RH}{{3.2}{23}}
\citation{EK}
\@writefile{toc}{\contentsline {subsection}{\numberline {3.2.4}Local stability for difference equations: the Jury conditions}{24}}
\newlabel{fig:JC}{{3.2.4}{24}}
\@writefile{lof}{\contentsline {figure}{\numberline {3.3}{\ignorespaces }}{25}}
\newlabel{fig:JC2}{{3.3}{25}}
\@writefile{toc}{\contentsline {section}{\numberline {3.3}Bifurcations and global stability}{26}}
\@writefile{lof}{\contentsline {figure}{\numberline {3.4}{\ignorespaces }}{26}}
\newlabel{fig:Bif}{{3.4}{26}}
\@writefile{toc}{\contentsline {subsubsection}{Cobwebbing for recursion equations}{26}}
\newlabel{sec:cob}{{3.3}{26}}
\citation{EK}
\citation{EK}
\citation{EK}
\citation{EK}
\@writefile{lof}{\contentsline {figure}{\numberline {3.5}{\ignorespaces }}{27}}
\newlabel{fig:Cob}{{3.5}{27}}
\@writefile{toc}{\contentsline {subsubsection}{Phase-plane diagrams for continuous and discrete time models}{27}}
\@writefile{lof}{\contentsline {figure}{\numberline {3.6}{\ignorespaces }}{28}}
\newlabel{fig:Cob2}{{3.6}{28}}
\@writefile{toc}{\contentsline {section}{\numberline {3.4}Examples}{29}}
\@writefile{toc}{\contentsline {subsection}{\numberline {3.4.1}Example: Continuous time analysis (linear, two coupled ODEs)}{29}}
\newlabel{eq:JJA}{{3.7}{29}}
\@writefile{lof}{\contentsline {figure}{\numberline {3.7}{\ignorespaces }}{29}}
\newlabel{fig:PhaseP}{{3.7}{29}}
\@writefile{toc}{\contentsline {subsection}{\numberline {3.4.2}Discrete time analysis (non-linear, one recursion equation)}{30}}
\newlabel{fig:JAB}{{3.4.1}{31}}
\@writefile{lof}{\contentsline {figure}{\numberline {3.8}{\ignorespaces Bifurcation diagram showing the values of the birth rate, $b$, where the equilibrium values of juveniles, $J^*$, and adults, $A^*$, are positive and stable. Positive equilibrium values are indicated by the solid lines ($J^*$: blue; $A^*$: red). The dashed lines indicated negative equilibrium values for $A^*$. The system of model is given by equations 3.7\hbox {} and the parameter values for this figure are $\theta = 0.1$, $m = 0.5$, $\mu = 0.1$, and $d=0.2$.}}{31}}
\@writefile{toc}{\contentsline {section}{\numberline {3.5}Numerical methods}{32}}
\@writefile{toc}{\contentsline {section}{\numberline {3.6}Summary}{32}}
\@writefile{toc}{\contentsline {chapter}{\numberline {4}Foundational models in biology}{33}}
\@writefile{lof}{\addvspace {10\p@ }}
\@writefile{lot}{\addvspace {10\p@ }}
\@writefile{toc}{\contentsline {section}{\numberline {4.1}Population biology}{33}}
\newlabel{sec:pop}{{4.1}{33}}
\@writefile{toc}{\contentsline {subsection}{\numberline {4.1.1}Exponental/Geometric growth}{33}}
\@writefile{toc}{\contentsline {subsection}{\numberline {4.1.2}Density-dependent growth}{33}}
\@writefile{toc}{\contentsline {subsubsection}{Logistic growth}{33}}
\citation{Turchin}
\citation{Turchin}
\citation{Ricker}
\citation{Sherratt}
\newlabel{eq:RR}{{4.6}{34}}
\@writefile{toc}{\contentsline {subsubsection}{Ricker model}{34}}
\@writefile{toc}{\contentsline {subsubsection}{Beverton-Holt model}{34}}
\citation{Karieva}
\citation{Turchin}
\@writefile{toc}{\contentsline {subsubsection}{Allee effect}{35}}
\@writefile{toc}{\contentsline {subsection}{\numberline {4.1.3}Population models with delays}{35}}
\@writefile{toc}{\contentsline {section}{\numberline {4.2}Age or stage structure}{35}}
\@writefile{toc}{\contentsline {section}{\numberline {4.3}Lotka-Volterra Competition}{35}}
\@writefile{toc}{\contentsline {section}{\numberline {4.4}Predator-prey interactions}{36}}
\@writefile{toc}{\contentsline {section}{\numberline {4.5}Kermack-McKendrick model: Person-to-person spread}{36}}
\citation{Wonham}
\@writefile{toc}{\contentsline {section}{\numberline {4.6}Ross-MacDonald: Disease-spread via vectors}{37}}
\@writefile{toc}{\contentsline {section}{\numberline {4.7}Deriving a new model}{38}}
\citation{Strogatz}
\citation{Barnes}
\@writefile{toc}{\contentsline {chapter}{\numberline {5}Introduction to models in Physics}{39}}
\@writefile{lof}{\addvspace {10\p@ }}
\@writefile{lot}{\addvspace {10\p@ }}
\@writefile{toc}{\contentsline {section}{\numberline {5.1}Mechanics: an undamped pendulum}{39}}
\@writefile{toc}{\contentsline {section}{\numberline {5.2}Heat models}{39}}
\newlabel{eq:H1}{{5.2}{39}}
\@writefile{toc}{\contentsline {subsection}{\numberline {5.2.1}Newton's law of cooling}{39}}
\citation{Foster}
\newlabel{eq:H2}{{5.3}{40}}
\@writefile{toc}{\contentsline {section}{\numberline {5.3}Fluid dynamics}{40}}
\newlabel{sec:FD}{{5.3}{40}}
\newlabel{eq:NS}{{5.5}{40}}
\newlabel{eq:NS1}{{5.6}{40}}
\newlabel{eq:NS3}{{5.8}{40}}
\citation{Cannone}
\@writefile{lof}{\contentsline {figure}{\numberline {5.1}{\ignorespaces A model for avoiding sandwich sogginess by Dr. Mark Hadley of the University of Warwick. A central element of this model is the Navier Stokes equations for an incompressible fluid. Source: https://www2.warwick.ac.uk/fac/sci/physics/staff/academic/mhadley/pr/Sandwich2.pdf}}{41}}
\citation{Kot}
\@writefile{toc}{\contentsline {chapter}{\numberline {6}Partial differential equation models}{42}}
\@writefile{lof}{\addvspace {10\p@ }}
\@writefile{lot}{\addvspace {10\p@ }}
\@writefile{toc}{\contentsline {section}{\numberline {6.1}A population with age-structure: the McKendrick-von Foerster model}{42}}
\@writefile{toc}{\contentsline {section}{\numberline {6.2}An SIS age of infection model}{44}}
\@writefile{toc}{\contentsline {section}{\numberline {6.3}Growing and moving populations: reaction, diffusion and advection}{44}}
\newlabel{eq:pzz}{{6.4}{44}}
\newlabel{eq:Aa}{{6.5}{44}}
\newlabel{eq:Aa2}{{6.7}{44}}
\citation{Fisher}
\citation{Potapov}
\citation{Ber}
\newlabel{eq:FP}{{6.9}{45}}
\@writefile{toc}{\contentsline {subsection}{\numberline {6.3.1}Diffusion only}{45}}
\@writefile{toc}{\contentsline {subsection}{\numberline {6.3.2}Reaction and diffusion: Fisher's equation}{45}}
\@writefile{toc}{\contentsline {subsection}{\numberline {6.3.3}Can species keep pace with climate change?}{45}}
\citation{Black}
\citation{Gillespie}
\@writefile{toc}{\contentsline {chapter}{\numberline {7}Stochastic models}{46}}
\@writefile{lof}{\addvspace {10\p@ }}
\@writefile{lot}{\addvspace {10\p@ }}
\@writefile{toc}{\contentsline {section}{\numberline {7.1}The Gillespie Stochastic Simulation Algorithm (SSA)}{46}}
\@writefile{toc}{\contentsline {subsection}{\numberline {7.1.1}Numerically generating random variables}{46}}
\@writefile{toc}{\contentsline {subsubsection}{Example: Exponential distribution}{46}}
\citation{Gillespie}
\newlabel{eq:a2a}{{7.6}{47}}
\@writefile{toc}{\contentsline {subsection}{\numberline {7.1.2}The Gillespie SSA}{47}}
\newlabel{default}{{7.1.2}{47}}
\@writefile{toc}{\contentsline {subsection}{\numberline {7.1.3}Characterizing the probability density of $\mu $ and $\tau $}{47}}
\citation{Gillespie}
\@writefile{toc}{\contentsline {subsection}{\numberline {7.1.4}Pseudo-code}{49}}
\@writefile{toc}{\contentsline {chapter}{\numberline {8}Estimating parameters and model selection}{50}}
\@writefile{lof}{\addvspace {10\p@ }}
\@writefile{lot}{\addvspace {10\p@ }}
\@writefile{toc}{\contentsline {section}{\numberline {8.1}Model paramterization}{50}}
\@writefile{toc}{\contentsline {subsection}{\numberline {8.1.1}Parameter estimation}{50}}
\@writefile{toc}{\contentsline {subsection}{\numberline {8.1.2}Transformational methods}{53}}
\@writefile{lof}{\contentsline {figure}{\numberline {8.1}{\ignorespaces }}{54}}
\@writefile{toc}{\contentsline {subsection}{\numberline {8.1.3}Error models}{55}}
\@writefile{toc}{\contentsline {subsection}{\numberline {8.1.4}Maximum likelihood}{56}}
\citation{Reilly}
\citation{Sokal}
\@writefile{toc}{\contentsline {section}{\numberline {8.2}Model selection}{58}}
\@writefile{toc}{\contentsline {subsection}{\numberline {8.2.1}Likelihood ratio test}{58}}
\@writefile{toc}{\contentsline {subsection}{\numberline {8.2.2}Akaike Information Criterion}{59}}
\bibcite{Barnes}{{1}{2009}{{Barnes \& Fulford}}{{}}}
\bibcite{Ber}{{2}{2009}{{Berestycki et al.}}{{}}}
\bibcite{Black}{{3}{2012}{{Black \& McKane}}{{}}}
\bibcite{Bliss}{{4}{2014}{{Bliss et al.}}{{}}}
\bibcite{Box}{{5}{1979}{{Box}}{{}}}
\bibcite{BA}{{6}{2002}{{Burnham \& Anderson}}{{}}}
\bibcite{deVries}{{7}{2006}{{de Vries et al.}}{{}}}
\bibcite{Cannone}{{8}{2003}{{Cannone \& Friedlander}}{{}}}
\bibcite{Dym}{{9}{2004}{{Dym}}{{}}}
\bibcite{EK}{{10}{1988}{{Edelstein-Keshet}}{{}}}
\bibcite{Fisher}{{11}{1937}{{Fisher}}{{}}}
\bibcite{Foster}{{12}{1996}{{Foster \& Metaxas}}{{}}}
\bibcite{Gillespie}{{13}{1977}{{Gillespie}}{{}}}
\bibcite{Haefner}{{14}{1996}{{Haefner}}{{}}}
\bibcite{Kot}{{15}{2001}{{Kot}}{{}}}
\bibcite{Karieva}{{16}{1993}{{Lewis \& Karieva}}{{}}}
\bibcite{Otto}{{17}{2007}{{Otto \& Day}}{{}}}
\bibcite{Potapov}{{18}{2004}{{Potapov \& Lewis}}{{}}}
\bibcite{Powell}{{19}{2012}{{Powell et al.}}{{}}}
\bibcite{Reilly}{{20}{1970}{{Reilly}}{{}}}
\bibcite{Ricker}{{21}{1954}{{Ricker}}{{}}}
\bibcite{Sherratt}{{22}{2009}{{Sherratt \& Wilkinson}}{{}}}
\bibcite{Sokal}{{23}{1981}{{Sokal \& Rolhf}}{{}}}
\bibcite{Strogatz}{{24}{1994}{{Strogatz}}{{}}}
\bibcite{Turchin}{{25}{2003}{{Turchin}}{{}}}
\bibcite{vdd}{{26}{2002}{{van den Driessche \& Watmough}}{{}}}
\bibcite{Wonham}{{27}{2003}{{Wonham et al.}}{{}}}
