%!PS-Adobe-3.0 EPSF-3.0
%%Creator: MATLAB, The MathWorks, Inc. Version 8.0.0.783 (R2012b). Operating System: Linux 3.6.11-gentoo #3 SMP Thu Jan 10 14:43:41 NST 2013 x86_64.
%%Title: /users/math/faculty2/ahurford/4190/RickerApprox_m.eps
%%CreationDate: 03/07/2013  11:32:47
%%DocumentNeededFonts: Helvetica
%%DocumentProcessColors: Cyan Magenta Yellow Black
%%LanguageLevel: 2
%%Pages: 1
%%BoundingBox:    81   227   529   564
%%EndComments

%%BeginProlog
% MathWorks dictionary
/MathWorks 160 dict begin
% definition operators
/bdef {bind def} bind def
/ldef {load def} bind def
/xdef {exch def} bdef
/xstore {exch store} bdef
% operator abbreviations
/c  /clip ldef
/cc /concat ldef
/cp /closepath ldef
/gr /grestore ldef
/gs /gsave ldef
/mt /moveto ldef
/np /newpath ldef
/cm /currentmatrix ldef
/sm /setmatrix ldef
/rm /rmoveto ldef
/rl /rlineto ldef
/s {show newpath} bdef
/sc {setcmykcolor} bdef
/sr /setrgbcolor ldef
/sg /setgray ldef
/w /setlinewidth ldef
/j /setlinejoin ldef
/cap /setlinecap ldef
/rc {rectclip} bdef
/rf {rectfill} bdef
% page state control
/pgsv () def
/bpage {/pgsv save def} bdef
/epage {pgsv restore} bdef
/bplot /gsave ldef
/eplot {stroke grestore} bdef
% orientation switch
/portraitMode 0 def /landscapeMode 1 def /rotateMode 2 def
% coordinate system mappings
/dpi2point 0 def
% font control
/FontSize 0 def
/FMS {/FontSize xstore findfont [FontSize 0 0 FontSize neg 0 0]
  makefont setfont} bdef
/reencode {exch dup where {pop load} {pop StandardEncoding} ifelse
  exch dup 3 1 roll findfont dup length dict begin
  { 1 index /FID ne {def}{pop pop} ifelse } forall
  /Encoding exch def currentdict end definefont pop} bdef
/isroman {findfont /CharStrings get /Agrave known} bdef
/FMSR {3 1 roll 1 index dup isroman {reencode} {pop pop} ifelse
  exch FMS} bdef
/csm {1 dpi2point div -1 dpi2point div scale neg translate
 dup landscapeMode eq {pop -90 rotate}
  {rotateMode eq {90 rotate} if} ifelse} bdef
% line types: solid, dotted, dashed, dotdash
/SO { [] 0 setdash } bdef
/DO { [.5 dpi2point mul 4 dpi2point mul] 0 setdash } bdef
/DA { [6 dpi2point mul] 0 setdash } bdef
/DD { [.5 dpi2point mul 4 dpi2point mul 6 dpi2point mul 4
  dpi2point mul] 0 setdash } bdef
% macros for lines and objects
/L {lineto stroke} bdef
/MP {3 1 roll moveto 1 sub {rlineto} repeat} bdef
/AP {{rlineto} repeat} bdef
/PDlw -1 def
/W {/PDlw currentlinewidth def setlinewidth} def
/PP {closepath eofill} bdef
/DP {closepath stroke} bdef
/MR {4 -2 roll moveto dup  0 exch rlineto exch 0 rlineto
  neg 0 exch rlineto closepath} bdef
/FR {MR stroke} bdef
/PR {MR fill} bdef
/L1i {{currentfile picstr readhexstring pop} image} bdef
/tMatrix matrix def
/MakeOval {newpath tMatrix currentmatrix pop translate scale
0 0 1 0 360 arc tMatrix setmatrix} bdef
/FO {MakeOval stroke} bdef
/PO {MakeOval fill} bdef
/PD {currentlinewidth 2 div 0 360 arc fill
   PDlw -1 eq not {PDlw w /PDlw -1 def} if} def
/FA {newpath tMatrix currentmatrix pop translate scale
  0 0 1 5 -2 roll arc tMatrix setmatrix stroke} bdef
/PA {newpath tMatrix currentmatrix pop	translate 0 0 moveto scale
  0 0 1 5 -2 roll arc closepath tMatrix setmatrix fill} bdef
/FAn {newpath tMatrix currentmatrix pop translate scale
  0 0 1 5 -2 roll arcn tMatrix setmatrix stroke} bdef
/PAn {newpath tMatrix currentmatrix pop translate 0 0 moveto scale
  0 0 1 5 -2 roll arcn closepath tMatrix setmatrix fill} bdef
/vradius 0 def /hradius 0 def /lry 0 def
/lrx 0 def /uly 0 def /ulx 0 def /rad 0 def
/MRR {/vradius xdef /hradius xdef /lry xdef /lrx xdef /uly xdef
  /ulx xdef newpath tMatrix currentmatrix pop ulx hradius add uly
  vradius add translate hradius vradius scale 0 0 1 180 270 arc 
  tMatrix setmatrix lrx hradius sub uly vradius add translate
  hradius vradius scale 0 0 1 270 360 arc tMatrix setmatrix
  lrx hradius sub lry vradius sub translate hradius vradius scale
  0 0 1 0 90 arc tMatrix setmatrix ulx hradius add lry vradius sub
  translate hradius vradius scale 0 0 1 90 180 arc tMatrix setmatrix
  closepath} bdef
/FRR {MRR stroke } bdef
/PRR {MRR fill } bdef
/MlrRR {/lry xdef /lrx xdef /uly xdef /ulx xdef /rad lry uly sub 2 div def
  newpath tMatrix currentmatrix pop ulx rad add uly rad add translate
  rad rad scale 0 0 1 90 270 arc tMatrix setmatrix lrx rad sub lry rad
  sub translate rad rad scale 0 0 1 270 90 arc tMatrix setmatrix
  closepath} bdef
/FlrRR {MlrRR stroke } bdef
/PlrRR {MlrRR fill } bdef
/MtbRR {/lry xdef /lrx xdef /uly xdef /ulx xdef /rad lrx ulx sub 2 div def
  newpath tMatrix currentmatrix pop ulx rad add uly rad add translate
  rad rad scale 0 0 1 180 360 arc tMatrix setmatrix lrx rad sub lry rad
  sub translate rad rad scale 0 0 1 0 180 arc tMatrix setmatrix
  closepath} bdef
/FtbRR {MtbRR stroke } bdef
/PtbRR {MtbRR fill } bdef
/stri 6 array def /dtri 6 array def
/smat 6 array def /dmat 6 array def
/tmat1 6 array def /tmat2 6 array def /dif 3 array def
/asub {/ind2 exch def /ind1 exch def dup dup
  ind1 get exch ind2 get sub exch } bdef
/tri_to_matrix {
  2 0 asub 3 1 asub 4 0 asub 5 1 asub
  dup 0 get exch 1 get 7 -1 roll astore } bdef
/compute_transform {
  dmat dtri tri_to_matrix tmat1 invertmatrix 
  smat stri tri_to_matrix tmat2 concatmatrix } bdef
/ds {stri astore pop} bdef
/dt {dtri astore pop} bdef
/db {2 copy /cols xdef /rows xdef mul dup 3 mul string
  currentfile 
  3 index 0 eq {/ASCIIHexDecode filter}
  {/ASCII85Decode filter 3 index 2 eq {/RunLengthDecode filter} if }
  ifelse exch readstring pop
  dup 0 3 index getinterval /rbmap xdef
  dup 2 index dup getinterval /gbmap xdef
  1 index dup 2 mul exch getinterval /bbmap xdef pop pop}bdef
/it {gs np dtri aload pop moveto lineto lineto cp c
  cols rows 8 compute_transform 
  rbmap gbmap bbmap true 3 colorimage gr}bdef
/il {newpath moveto lineto stroke}bdef
currentdict end def
%%EndProlog

%%BeginSetup
MathWorks begin

0 cap

end
%%EndSetup

%%Page: 1 1
%%BeginPageSetup
%%PageBoundingBox:    81   227   529   564
MathWorks begin
bpage
%%EndPageSetup

%%BeginObject: obj1
bplot

/dpi2point 12 def
portraitMode 0972 6768 csm

    0     0  5376  4033 rc
85 dict begin %Colortable dictionary
/c0 { 0.000000 0.000000 0.000000 sr} bdef
/c1 { 1.000000 1.000000 1.000000 sr} bdef
/c2 { 0.900000 0.000000 0.000000 sr} bdef
/c3 { 0.000000 0.820000 0.000000 sr} bdef
/c4 { 0.000000 0.000000 0.800000 sr} bdef
/c5 { 0.910000 0.820000 0.320000 sr} bdef
/c6 { 1.000000 0.260000 0.820000 sr} bdef
/c7 { 0.000000 0.820000 0.820000 sr} bdef
c0
1 j
1 sg
   0    0 5377 4034 rf
6 w
0 1139 2933 0 0 -1139 699 1441 4 MP
PP
-2933 0 0 1139 2933 0 0 -1139 699 1441 5 MP stroke
4 w
DO
SO
6 w
0 sg
 699 1441 mt 3632 1441 L
 699 1441 mt  699  302 L
 699 1441 mt  699 1411 L
%%IncludeResource: font Helvetica
/Helvetica /ISOLatin1Encoding 120 FMSR

 666 1586 mt 
(0) s
1676 1441 mt 1676 1411 L
1593 1586 mt 
(0.5) s
2654 1441 mt 2654 1411 L
2621 1586 mt 
(1) s
3632 1441 mt 3632 1411 L
3549 1586 mt 
(1.5) s
 699 1441 mt  728 1441 L
 528 1485 mt 
(-2) s
 699 1061 mt  728 1061 L
 598 1105 mt 
(0) s
 699  681 mt  728  681 L
 598  725 mt 
(2) s
 699  302 mt  728  302 L
 598  346 mt 
(4) s
gs 699 302 2934 1140 rc
196 4 196 4 195 5 196 5 195 5 196 5 195 6 196 6 
195 7 196 7 195 8 196 9 195 11 196 12 195 16 699 1061 16 MP stroke
DA
196 19 196 19 195 19 196 19 195 19 196 19 195 19 196 19 
195 19 196 19 195 19 196 19 195 19 196 19 195 19 699 1061 16 MP stroke
SO
196 -15 196 -15 195 -15 196 -15 195 -15 196 -15 195 -16 196 -16 
195 -16 196 -16 195 -17 196 -18 195 -20 196 -21 195 -24 699 929 16 MP stroke
DA
196 -28 196 -27 195 -28 196 -27 195 -27 196 -28 195 -27 196 -28 
195 -27 196 -27 195 -28 196 -27 195 -27 196 -28 195 -27 699 929 16 MP stroke
gr

DA
1717 1729 mt 
(migration rate, m) s
 446 1253 mt  -90 rotate
(equilibrium, n*) s
90 rotate
 682 1484 mt 
( ) s
3616  344 mt 
( ) s
gs 699 302 2934 1140 rc
SO
196 4 196 4 195 5 196 5 195 5 196 5 195 6 196 6 
195 7 196 7 195 8 196 9 195 11 196 12 195 16 699 1061 16 MP stroke
DA
196 19 196 19 195 19 196 19 195 19 196 19 195 19 196 19 
195 19 196 19 195 19 196 19 195 19 196 19 195 19 699 1061 16 MP stroke
SO
196 -15 196 -15 195 -15 196 -15 195 -15 196 -15 195 -16 196 -16 
195 -16 196 -16 195 -17 196 -18 195 -20 196 -21 195 -24 699 929 16 MP stroke
DA
196 -28 196 -27 195 -28 196 -27 195 -27 196 -28 195 -27 196 -28 
195 -27 196 -27 195 -28 196 -27 195 -27 196 -28 195 -27 699 929 16 MP stroke
SO
196 4 196 4 195 5 196 5 195 5 196 5 195 6 196 6 
195 7 196 7 195 8 196 9 195 11 196 12 195 16 699 1061 16 MP stroke
DA
196 19 196 19 195 19 196 19 195 19 196 19 195 19 196 19 
195 19 196 19 195 19 196 19 195 19 196 19 195 19 699 1061 16 MP stroke
SO
196 -15 196 -15 195 -15 196 -15 195 -15 196 -15 195 -16 196 -16 
195 -16 196 -16 195 -17 196 -18 195 -20 196 -21 195 -24 699 929 16 MP stroke
DA
196 -28 196 -27 195 -28 196 -27 195 -27 196 -28 195 -27 196 -28 
195 -27 196 -27 195 -28 196 -27 195 -27 196 -28 195 -27 699 929 16 MP stroke
SO
196 4 196 4 195 5 196 5 195 5 196 5 195 6 196 6 
195 7 196 7 195 8 196 9 195 11 196 12 195 16 699 1061 16 MP stroke
DA
196 19 196 19 195 19 196 19 195 19 196 19 195 19 196 19 
195 19 196 19 195 19 196 19 195 19 196 19 195 19 699 1061 16 MP stroke
SO
196 -15 196 -15 195 -15 196 -15 195 -15 196 -15 195 -16 196 -16 
195 -16 196 -16 195 -17 196 -18 195 -20 196 -21 195 -24 699 929 16 MP stroke
DA
196 -28 196 -27 195 -28 196 -27 195 -27 196 -28 195 -27 196 -28 
195 -27 196 -27 195 -28 196 -27 195 -27 196 -28 195 -27 699 929 16 MP stroke
SO
196 4 196 4 195 5 196 5 195 5 196 5 195 6 196 6 
195 7 196 7 195 8 196 9 195 11 196 12 195 16 699 1061 16 MP stroke
DA
196 19 196 19 195 19 196 19 195 19 196 19 195 19 196 19 
195 19 196 19 195 19 196 19 195 19 196 19 195 19 699 1061 16 MP stroke
SO
196 -15 196 -15 195 -15 196 -15 195 -15 196 -15 195 -16 196 -16 
195 -16 196 -16 195 -17 196 -18 195 -20 196 -21 195 -24 699 929 16 MP stroke
DA
196 -28 196 -27 195 -28 196 -27 195 -27 196 -28 195 -27 196 -28 
195 -27 196 -27 195 -28 196 -27 195 -27 196 -28 195 -27 699 929 16 MP stroke
SO
196 4 196 4 195 5 196 5 195 5 196 5 195 6 196 6 
195 7 196 7 195 8 196 9 195 11 196 12 195 16 699 1061 16 MP stroke
DA
196 19 196 19 195 19 196 19 195 19 196 19 195 19 196 19 
195 19 196 19 195 19 196 19 195 19 196 19 195 19 699 1061 16 MP stroke
SO
196 -15 196 -15 195 -15 196 -15 195 -15 196 -15 195 -16 196 -16 
195 -16 196 -16 195 -17 196 -18 195 -20 196 -21 195 -24 699 929 16 MP stroke
DA
196 -28 196 -27 195 -28 196 -27 195 -27 196 -28 195 -27 196 -28 
195 -27 196 -27 195 -28 196 -27 195 -27 196 -28 195 -27 699 929 16 MP stroke
SO
196 4 196 4 195 5 196 5 195 5 196 5 195 6 196 6 
195 7 196 7 195 8 196 9 195 11 196 12 195 16 699 1061 16 MP stroke
DA
196 19 196 19 195 19 196 19 195 19 196 19 195 19 196 19 
195 19 196 19 195 19 196 19 195 19 196 19 195 19 699 1061 16 MP stroke
SO
196 -15 196 -15 195 -15 196 -15 195 -15 196 -15 195 -16 196 -16 
195 -16 196 -16 195 -17 196 -18 195 -20 196 -21 195 -24 699 929 16 MP stroke
DA
196 -28 196 -27 195 -28 196 -27 195 -27 196 -28 195 -27 196 -28 
195 -27 196 -27 195 -28 196 -27 195 -27 196 -28 195 -27 699 929 16 MP stroke
SO
196 4 196 4 195 5 196 5 195 5 196 5 195 6 196 6 
195 7 196 7 195 8 196 9 195 11 196 12 195 16 699 1061 16 MP stroke
DA
196 19 196 19 195 19 196 19 195 19 196 19 195 19 196 19 
195 19 196 19 195 19 196 19 195 19 196 19 195 19 699 1061 16 MP stroke
SO
196 -15 196 -15 195 -15 196 -15 195 -15 196 -15 195 -16 196 -16 
195 -16 196 -16 195 -17 196 -18 195 -20 196 -21 195 -24 699 929 16 MP stroke
DA
196 -28 196 -27 195 -28 196 -27 195 -27 196 -28 195 -27 196 -28 
195 -27 196 -27 195 -28 196 -27 195 -27 196 -28 195 -27 699 929 16 MP stroke
SO
196 4 196 4 195 5 196 5 195 5 196 5 195 6 196 6 
195 7 196 7 195 8 196 9 195 11 196 12 195 16 699 1061 16 MP stroke
DA
196 19 196 19 195 19 196 19 195 19 196 19 195 19 196 19 
195 19 196 19 195 19 196 19 195 19 196 19 195 19 699 1061 16 MP stroke
SO
196 -15 196 -15 195 -15 196 -15 195 -15 196 -15 195 -16 196 -16 
195 -16 196 -16 195 -17 196 -18 195 -20 196 -21 195 -24 699 929 16 MP stroke
DA
196 -28 196 -27 195 -28 196 -27 195 -27 196 -28 195 -27 196 -28 
195 -27 196 -27 195 -28 196 -27 195 -27 196 -28 195 -27 699 929 16 MP stroke
SO
196 4 196 4 195 5 196 5 195 5 196 5 195 6 196 6 
195 7 196 7 195 8 196 9 195 11 196 12 195 16 699 1061 16 MP stroke
DA
196 19 196 19 195 19 196 19 195 19 196 19 195 19 196 19 
195 19 196 19 195 19 196 19 195 19 196 19 195 19 699 1061 16 MP stroke
SO
196 -15 196 -15 195 -15 196 -15 195 -15 196 -15 195 -16 196 -16 
195 -16 196 -16 195 -17 196 -18 195 -20 196 -21 195 -24 699 929 16 MP stroke
DA
196 -28 196 -27 195 -28 196 -27 195 -27 196 -28 195 -27 196 -28 
195 -27 196 -27 195 -28 196 -27 195 -27 196 -28 195 -27 699 929 16 MP stroke
SO
196 4 196 4 195 5 196 5 195 5 196 5 195 6 196 6 
195 7 196 7 195 8 196 9 195 11 196 12 195 16 699 1061 16 MP stroke
DA
196 19 196 19 195 19 196 19 195 19 196 19 195 19 196 19 
195 19 196 19 195 19 196 19 195 19 196 19 195 19 699 1061 16 MP stroke
SO
196 -15 196 -15 195 -15 196 -15 195 -15 196 -15 195 -16 196 -16 
195 -16 196 -16 195 -17 196 -18 195 -20 196 -21 195 -24 699 929 16 MP stroke
DA
196 -28 196 -27 195 -28 196 -27 195 -27 196 -28 195 -27 196 -28 
195 -27 196 -27 195 -28 196 -27 195 -27 196 -28 195 -27 699 929 16 MP stroke
SO
196 4 196 4 195 5 196 5 195 5 196 5 195 6 196 6 
195 7 196 7 195 8 196 9 195 11 196 12 195 16 699 1061 16 MP stroke
DA
196 19 196 19 195 19 196 19 195 19 196 19 195 19 196 19 
195 19 196 19 195 19 196 19 195 19 196 19 195 19 699 1061 16 MP stroke
SO
196 -15 196 -15 195 -15 196 -15 195 -15 196 -15 195 -16 196 -16 
195 -16 196 -16 195 -17 196 -18 195 -20 196 -21 195 -24 699 929 16 MP stroke
DA
196 -28 196 -27 195 -28 196 -27 195 -27 196 -28 195 -27 196 -28 
195 -27 196 -27 195 -28 196 -27 195 -27 196 -28 195 -27 699 929 16 MP stroke
SO
196 4 196 4 195 5 196 5 195 5 196 5 195 6 196 6 
195 7 196 7 195 8 196 9 195 11 196 12 195 16 699 1061 16 MP stroke
DA
196 19 196 19 195 19 196 19 195 19 196 19 195 19 196 19 
195 19 196 19 195 19 196 19 195 19 196 19 195 19 699 1061 16 MP stroke
SO
196 -15 196 -15 195 -15 196 -15 195 -15 196 -15 195 -16 196 -16 
195 -16 196 -16 195 -17 196 -18 195 -20 196 -21 195 -24 699 929 16 MP stroke
DA
196 -28 196 -27 195 -28 196 -27 195 -27 196 -28 195 -27 196 -28 
195 -27 196 -27 195 -28 196 -27 195 -27 196 -28 195 -27 699 929 16 MP stroke
SO
196 4 196 4 195 5 196 5 195 5 196 5 195 6 196 6 
195 7 196 7 195 8 196 9 195 11 196 12 195 16 699 1061 16 MP stroke
DA
196 19 196 19 195 19 196 19 195 19 196 19 195 19 196 19 
195 19 196 19 195 19 196 19 195 19 196 19 195 19 699 1061 16 MP stroke
SO
196 -15 196 -15 195 -15 196 -15 195 -15 196 -15 195 -16 196 -16 
195 -16 196 -16 195 -17 196 -18 195 -20 196 -21 195 -24 699 929 16 MP stroke
DA
196 -28 196 -27 195 -28 196 -27 195 -27 196 -28 195 -27 196 -28 
195 -27 196 -27 195 -28 196 -27 195 -27 196 -28 195 -27 699 929 16 MP stroke
SO
196 4 196 4 195 5 196 5 195 5 196 5 195 6 196 6 
195 7 196 7 195 8 196 9 195 11 196 12 195 16 699 1061 16 MP stroke
DA
196 19 196 19 195 19 196 19 195 19 196 19 195 19 196 19 
195 19 196 19 195 19 196 19 195 19 196 19 195 19 699 1061 16 MP stroke
SO
196 -15 196 -15 195 -15 196 -15 195 -15 196 -15 195 -16 196 -16 
195 -16 196 -16 195 -17 196 -18 195 -20 196 -21 195 -24 699 929 16 MP stroke
DA
196 -28 196 -27 195 -28 196 -27 195 -27 196 -28 195 -27 196 -28 
195 -27 196 -27 195 -28 196 -27 195 -27 196 -28 195 -27 699 929 16 MP stroke
SO
196 4 196 4 195 5 196 5 195 5 196 5 195 6 196 6 
195 7 196 7 195 8 196 9 195 11 196 12 195 16 699 1061 16 MP stroke
DA
196 19 196 19 195 19 196 19 195 19 196 19 195 19 196 19 
195 19 196 19 195 19 196 19 195 19 196 19 195 19 699 1061 16 MP stroke
SO
196 -15 196 -15 195 -15 196 -15 195 -15 196 -15 195 -16 196 -16 
195 -16 196 -16 195 -17 196 -18 195 -20 196 -21 195 -24 699 929 16 MP stroke
DA
196 -28 196 -27 195 -28 196 -27 195 -27 196 -28 195 -27 196 -28 
195 -27 196 -27 195 -28 196 -27 195 -27 196 -28 195 -27 699 929 16 MP stroke
SO
196 4 196 4 195 5 196 5 195 5 196 5 195 6 196 6 
195 7 196 7 195 8 196 9 195 11 196 12 195 16 699 1061 16 MP stroke
DA
196 19 196 19 195 19 196 19 195 19 196 19 195 19 196 19 
195 19 196 19 195 19 196 19 195 19 196 19 195 19 699 1061 16 MP stroke
SO
196 -15 196 -15 195 -15 196 -15 195 -15 196 -15 195 -16 196 -16 
195 -16 196 -16 195 -17 196 -18 195 -20 196 -21 195 -24 699 929 16 MP stroke
DA
196 -28 196 -27 195 -28 196 -27 195 -27 196 -28 195 -27 196 -28 
195 -27 196 -27 195 -28 196 -27 195 -27 196 -28 195 -27 699 929 16 MP stroke
SO
196 4 196 4 195 5 196 5 195 5 196 5 195 6 196 6 
195 7 196 7 195 8 196 9 195 11 196 12 195 16 699 1061 16 MP stroke
DA
196 19 196 19 195 19 196 19 195 19 196 19 195 19 196 19 
195 19 196 19 195 19 196 19 195 19 196 19 195 19 699 1061 16 MP stroke
SO
196 -15 196 -15 195 -15 196 -15 195 -15 196 -15 195 -16 196 -16 
195 -16 196 -16 195 -17 196 -18 195 -20 196 -21 195 -24 699 929 16 MP stroke
DA
196 -28 196 -27 195 -28 196 -27 195 -27 196 -28 195 -27 196 -28 
195 -27 196 -27 195 -28 196 -27 195 -27 196 -28 195 -27 699 929 16 MP stroke
SO
196 4 196 4 195 5 196 5 195 5 196 5 195 6 196 6 
195 7 196 7 195 8 196 9 195 11 196 12 195 16 699 1061 16 MP stroke
DA
196 19 196 19 195 19 196 19 195 19 196 19 195 19 196 19 
195 19 196 19 195 19 196 19 195 19 196 19 195 19 699 1061 16 MP stroke
SO
196 -15 196 -15 195 -15 196 -15 195 -15 196 -15 195 -16 196 -16 
195 -16 196 -16 195 -17 196 -18 195 -20 196 -21 195 -24 699 929 16 MP stroke
DA
196 -28 196 -27 195 -28 196 -27 195 -27 196 -28 195 -27 196 -28 
195 -27 196 -27 195 -28 196 -27 195 -27 196 -28 195 -27 699 929 16 MP stroke
SO
196 4 196 4 195 5 196 5 195 5 196 5 195 6 196 6 
195 7 196 7 195 8 196 9 195 11 196 12 195 16 699 1061 16 MP stroke
DA
196 19 196 19 195 19 196 19 195 19 196 19 195 19 196 19 
195 19 196 19 195 19 196 19 195 19 196 19 195 19 699 1061 16 MP stroke
SO
196 -15 196 -15 195 -15 196 -15 195 -15 196 -15 195 -16 196 -16 
195 -16 196 -16 195 -17 196 -18 195 -20 196 -21 195 -24 699 929 16 MP stroke
DA
196 -28 196 -27 195 -28 196 -27 195 -27 196 -28 195 -27 196 -28 
195 -27 196 -27 195 -28 196 -27 195 -27 196 -28 195 -27 699 929 16 MP stroke
SO
196 4 196 4 195 5 196 5 195 5 196 5 195 6 196 6 
195 7 196 7 195 8 196 9 195 11 196 12 195 16 699 1061 16 MP stroke
DA
196 19 196 19 195 19 196 19 195 19 196 19 195 19 196 19 
195 19 196 19 195 19 196 19 195 19 196 19 195 19 699 1061 16 MP stroke
SO
196 -15 196 -15 195 -15 196 -15 195 -15 196 -15 195 -16 196 -16 
195 -16 196 -16 195 -17 196 -18 195 -20 196 -21 195 -24 699 929 16 MP stroke
DA
196 -28 196 -27 195 -28 196 -27 195 -27 196 -28 195 -27 196 -28 
195 -27 196 -27 195 -28 196 -27 195 -27 196 -28 195 -27 699 929 16 MP stroke
SO
gr

SO
1 sg
0 1139 2933 0 0 -1139 699 3352 4 MP
PP
-2933 0 0 1139 2933 0 0 -1139 699 3352 5 MP stroke
4 w
DO
SO
6 w
0 sg
 699 3352 mt 3632 3352 L
 699 3352 mt  699 2213 L
 699 3352 mt  699 3322 L
 666 3497 mt 
(0) s
1676 3352 mt 1676 3322 L
1593 3497 mt 
(0.5) s
2654 3352 mt 2654 3322 L
2621 3497 mt 
(1) s
3632 3352 mt 3632 3322 L
3549 3497 mt 
(1.5) s
 699 3352 mt  728 3352 L
 528 3396 mt 
(-1) s
 699 3124 mt  728 3124 L
 598 3168 mt 
(0) s
 699 2896 mt  728 2896 L
 598 2940 mt 
(1) s
 699 2668 mt  728 2668 L
 598 2712 mt 
(2) s
 699 2440 mt  728 2440 L
 598 2484 mt 
(3) s
 699 2213 mt  728 2213 L
 598 2257 mt 
(4) s
gs 699 2213 2934 1140 rc
31 -8 195 -53 196 -56 195 -58 196 -61 195 -65 196 -72 195 -82 
699 2668 9 MP stroke
DA
195 -91 196 -91 195 -91 196 -91 195 -91 699 2668 6 MP stroke
SO
196 0 196 0 195 1 196 2 195 2 196 3 195 4 196 5 
195 6 196 9 195 10 196 14 195 17 196 24 195 34 699 3054 16 MP stroke
DA
186 42 196 42 195 43 196 43 195 43 196 43 195 43 699 3054 8 MP stroke
gr

DA
 446 3344 mt  -90 rotate
(Dominant eigenvalue) s
90 rotate
1717 3640 mt 
(migration rate, m) s
 682 3395 mt 
( ) s
3616 2255 mt 
( ) s
gs 699 2213 2934 1140 rc
SO
31 -8 195 -53 196 -56 195 -58 196 -61 195 -65 196 -72 195 -82 
699 2668 9 MP stroke
DA
195 -91 196 -91 195 -91 196 -91 195 -91 699 2668 6 MP stroke
SO
196 0 196 0 195 1 196 2 195 2 196 3 195 4 196 5 
195 6 196 9 195 10 196 14 195 17 196 24 195 34 699 3054 16 MP stroke
DA
186 42 196 42 195 43 196 43 195 43 196 43 195 43 699 3054 8 MP stroke
SO
31 -8 195 -53 196 -56 195 -58 196 -61 195 -65 196 -72 195 -82 
699 2668 9 MP stroke
DA
195 -91 196 -91 195 -91 196 -91 195 -91 699 2668 6 MP stroke
SO
196 0 196 0 195 1 196 2 195 2 196 3 195 4 196 5 
195 6 196 9 195 10 196 14 195 17 196 24 195 34 699 3054 16 MP stroke
DA
186 42 196 42 195 43 196 43 195 43 196 43 195 43 699 3054 8 MP stroke
SO
31 -8 195 -53 196 -56 195 -58 196 -61 195 -65 196 -72 195 -82 
699 2668 9 MP stroke
DA
195 -91 196 -91 195 -91 196 -91 195 -91 699 2668 6 MP stroke
SO
196 0 196 0 195 1 196 2 195 2 196 3 195 4 196 5 
195 6 196 9 195 10 196 14 195 17 196 24 195 34 699 3054 16 MP stroke
DA
186 42 196 42 195 43 196 43 195 43 196 43 195 43 699 3054 8 MP stroke
SO
31 -8 195 -53 196 -56 195 -58 196 -61 195 -65 196 -72 195 -82 
699 2668 9 MP stroke
DA
195 -91 196 -91 195 -91 196 -91 195 -91 699 2668 6 MP stroke
SO
196 0 196 0 195 1 196 2 195 2 196 3 195 4 196 5 
195 6 196 9 195 10 196 14 195 17 196 24 195 34 699 3054 16 MP stroke
DA
186 42 196 42 195 43 196 43 195 43 196 43 195 43 699 3054 8 MP stroke
SO
31 -8 195 -53 196 -56 195 -58 196 -61 195 -65 196 -72 195 -82 
699 2668 9 MP stroke
DA
195 -91 196 -91 195 -91 196 -91 195 -91 699 2668 6 MP stroke
SO
196 0 196 0 195 1 196 2 195 2 196 3 195 4 196 5 
195 6 196 9 195 10 196 14 195 17 196 24 195 34 699 3054 16 MP stroke
DA
186 42 196 42 195 43 196 43 195 43 196 43 195 43 699 3054 8 MP stroke
SO
31 -8 195 -53 196 -56 195 -58 196 -61 195 -65 196 -72 195 -82 
699 2668 9 MP stroke
DA
195 -91 196 -91 195 -91 196 -91 195 -91 699 2668 6 MP stroke
SO
196 0 196 0 195 1 196 2 195 2 196 3 195 4 196 5 
195 6 196 9 195 10 196 14 195 17 196 24 195 34 699 3054 16 MP stroke
DA
186 42 196 42 195 43 196 43 195 43 196 43 195 43 699 3054 8 MP stroke
SO
31 -8 195 -53 196 -56 195 -58 196 -61 195 -65 196 -72 195 -82 
699 2668 9 MP stroke
DA
195 -91 196 -91 195 -91 196 -91 195 -91 699 2668 6 MP stroke
SO
196 0 196 0 195 1 196 2 195 2 196 3 195 4 196 5 
195 6 196 9 195 10 196 14 195 17 196 24 195 34 699 3054 16 MP stroke
DA
186 42 196 42 195 43 196 43 195 43 196 43 195 43 699 3054 8 MP stroke
SO
31 -8 195 -53 196 -56 195 -58 196 -61 195 -65 196 -72 195 -82 
699 2668 9 MP stroke
DA
195 -91 196 -91 195 -91 196 -91 195 -91 699 2668 6 MP stroke
SO
196 0 196 0 195 1 196 2 195 2 196 3 195 4 196 5 
195 6 196 9 195 10 196 14 195 17 196 24 195 34 699 3054 16 MP stroke
DA
186 42 196 42 195 43 196 43 195 43 196 43 195 43 699 3054 8 MP stroke
SO
31 -8 195 -53 196 -56 195 -58 196 -61 195 -65 196 -72 195 -82 
699 2668 9 MP stroke
DA
195 -91 196 -91 195 -91 196 -91 195 -91 699 2668 6 MP stroke
SO
196 0 196 0 195 1 196 2 195 2 196 3 195 4 196 5 
195 6 196 9 195 10 196 14 195 17 196 24 195 34 699 3054 16 MP stroke
DA
186 42 196 42 195 43 196 43 195 43 196 43 195 43 699 3054 8 MP stroke
SO
31 -8 195 -53 196 -56 195 -58 196 -61 195 -65 196 -72 195 -82 
699 2668 9 MP stroke
DA
195 -91 196 -91 195 -91 196 -91 195 -91 699 2668 6 MP stroke
SO
196 0 196 0 195 1 196 2 195 2 196 3 195 4 196 5 
195 6 196 9 195 10 196 14 195 17 196 24 195 34 699 3054 16 MP stroke
DA
186 42 196 42 195 43 196 43 195 43 196 43 195 43 699 3054 8 MP stroke
SO
31 -8 195 -53 196 -56 195 -58 196 -61 195 -65 196 -72 195 -82 
699 2668 9 MP stroke
DA
195 -91 196 -91 195 -91 196 -91 195 -91 699 2668 6 MP stroke
SO
196 0 196 0 195 1 196 2 195 2 196 3 195 4 196 5 
195 6 196 9 195 10 196 14 195 17 196 24 195 34 699 3054 16 MP stroke
DA
186 42 196 42 195 43 196 43 195 43 196 43 195 43 699 3054 8 MP stroke
SO
31 -8 195 -53 196 -56 195 -58 196 -61 195 -65 196 -72 195 -82 
699 2668 9 MP stroke
DA
195 -91 196 -91 195 -91 196 -91 195 -91 699 2668 6 MP stroke
SO
196 0 196 0 195 1 196 2 195 2 196 3 195 4 196 5 
195 6 196 9 195 10 196 14 195 17 196 24 195 34 699 3054 16 MP stroke
DA
186 42 196 42 195 43 196 43 195 43 196 43 195 43 699 3054 8 MP stroke
SO
31 -8 195 -53 196 -56 195 -58 196 -61 195 -65 196 -72 195 -82 
699 2668 9 MP stroke
DA
195 -91 196 -91 195 -91 196 -91 195 -91 699 2668 6 MP stroke
SO
196 0 196 0 195 1 196 2 195 2 196 3 195 4 196 5 
195 6 196 9 195 10 196 14 195 17 196 24 195 34 699 3054 16 MP stroke
DA
186 42 196 42 195 43 196 43 195 43 196 43 195 43 699 3054 8 MP stroke
SO
31 -8 195 -53 196 -56 195 -58 196 -61 195 -65 196 -72 195 -82 
699 2668 9 MP stroke
DA
195 -91 196 -91 195 -91 196 -91 195 -91 699 2668 6 MP stroke
SO
196 0 196 0 195 1 196 2 195 2 196 3 195 4 196 5 
195 6 196 9 195 10 196 14 195 17 196 24 195 34 699 3054 16 MP stroke
DA
186 42 196 42 195 43 196 43 195 43 196 43 195 43 699 3054 8 MP stroke
SO
31 -8 195 -53 196 -56 195 -58 196 -61 195 -65 196 -72 195 -82 
699 2668 9 MP stroke
DA
195 -91 196 -91 195 -91 196 -91 195 -91 699 2668 6 MP stroke
SO
196 0 196 0 195 1 196 2 195 2 196 3 195 4 196 5 
195 6 196 9 195 10 196 14 195 17 196 24 195 34 699 3054 16 MP stroke
DA
186 42 196 42 195 43 196 43 195 43 196 43 195 43 699 3054 8 MP stroke
SO
31 -8 195 -53 196 -56 195 -58 196 -61 195 -65 196 -72 195 -82 
699 2668 9 MP stroke
DA
195 -91 196 -91 195 -91 196 -91 195 -91 699 2668 6 MP stroke
SO
196 0 196 0 195 1 196 2 195 2 196 3 195 4 196 5 
195 6 196 9 195 10 196 14 195 17 196 24 195 34 699 3054 16 MP stroke
DA
186 42 196 42 195 43 196 43 195 43 196 43 195 43 699 3054 8 MP stroke
SO
31 -8 195 -53 196 -56 195 -58 196 -61 195 -65 196 -72 195 -82 
699 2668 9 MP stroke
DA
195 -91 196 -91 195 -91 196 -91 195 -91 699 2668 6 MP stroke
SO
196 0 196 0 195 1 196 2 195 2 196 3 195 4 196 5 
195 6 196 9 195 10 196 14 195 17 196 24 195 34 699 3054 16 MP stroke
DA
186 42 196 42 195 43 196 43 195 43 196 43 195 43 699 3054 8 MP stroke
SO
31 -8 195 -53 196 -56 195 -58 196 -61 195 -65 196 -72 195 -82 
699 2668 9 MP stroke
DA
195 -91 196 -91 195 -91 196 -91 195 -91 699 2668 6 MP stroke
SO
196 0 196 0 195 1 196 2 195 2 196 3 195 4 196 5 
195 6 196 9 195 10 196 14 195 17 196 24 195 34 699 3054 16 MP stroke
DA
186 42 196 42 195 43 196 43 195 43 196 43 195 43 699 3054 8 MP stroke
SO
31 -8 195 -53 196 -56 195 -58 196 -61 195 -65 196 -72 195 -82 
699 2668 9 MP stroke
DA
195 -91 196 -91 195 -91 196 -91 195 -91 699 2668 6 MP stroke
SO
196 0 196 0 195 1 196 2 195 2 196 3 195 4 196 5 
195 6 196 9 195 10 196 14 195 17 196 24 195 34 699 3054 16 MP stroke
DA
186 42 196 42 195 43 196 43 195 43 196 43 195 43 699 3054 8 MP stroke
SO
31 -8 195 -53 196 -56 195 -58 196 -61 195 -65 196 -72 195 -82 
699 2668 9 MP stroke
DA
195 -91 196 -91 195 -91 196 -91 195 -91 699 2668 6 MP stroke
SO
196 0 196 0 195 1 196 2 195 2 196 3 195 4 196 5 
195 6 196 9 195 10 196 14 195 17 196 24 195 34 699 3054 16 MP stroke
DA
186 42 196 42 195 43 196 43 195 43 196 43 195 43 699 3054 8 MP stroke
SO
gr

SO
4218  436 mt 
(numerical) s
gs 3752 302 1084 335 rc
358 0 3823 393 2 MP stroke
gr

4218  587 mt 
(approx \(m\)) s
gs 3752 302 1084 335 rc
DA
358 0 3823 544 2 MP stroke
SO
gr

4218 2347 mt 
(numerical) s
gs 3752 2213 1084 335 rc
358 0 3823 2304 2 MP stroke
gr

4218 2498 mt 
(approx \(m\)) s
gs 3752 2213 1084 335 rc
DA
358 0 3823 2455 2 MP stroke
SO
gr


end %%Color Dict

eplot
%%EndObject

epage
end

showpage

%%Trailer
%%EOF
